Serial To SPI/simulation/qsim/SerialtoSpi.msim.vcd
$comment
	File created using the following command:
		vcd file SerialtoSpi.msim.vcd -direction
$end
$date
	Wed Feb 24 22:55:58 2016
$end
$version
	ModelSim Version 10.4b
$end
$timescale
	1ps
$end

$scope module SerialtoSpi_vlg_vec_tst $end
$var reg 1 ! clk $end
$var wire 1 " OUT $end

$scope module i1 $end
$var wire 1 # gnd $end
$var wire 1 $ vcc $end
$var wire 1 % unknown $end
$var tri1 1 & devclrn $end
$var tri1 1 ' devpor $end
$var tri1 1 ( devoe $end
$var wire 1 ) OUT~output_o $end
$var wire 1 * clk~input_o $end
$var wire 1 + Add0~0_combout $end
$var wire 1 , count~1_combout $end
$var wire 1 - Add0~1 $end
$var wire 1 . Add0~2_combout $end
$var wire 1 / Add0~3 $end
$var wire 1 0 Add0~4_combout $end
$var wire 1 1 count~0_combout $end
$var wire 1 2 Add0~5 $end
$var wire 1 3 Add0~6_combout $end
$var wire 1 4 Equal0~0_combout $end
$var wire 1 5 Add0~7 $end
$var wire 1 6 Add0~8_combout $end
$var wire 1 7 Add0~9 $end
$var wire 1 8 Add0~10_combout $end
$var wire 1 9 count~2_combout $end
$var wire 1 : Add0~11 $end
$var wire 1 ; Add0~12_combout $end
$var wire 1 < count~3_combout $end
$var wire 1 = Add0~13 $end
$var wire 1 > Add0~14_combout $end
$var wire 1 ? Equal0~1_combout $end
$var wire 1 @ Add0~15 $end
$var wire 1 A Add0~16_combout $end
$var wire 1 B Add0~17 $end
$var wire 1 C Add0~18_combout $end
$var wire 1 D Add0~19 $end
$var wire 1 E Add0~20_combout $end
$var wire 1 F Add0~21 $end
$var wire 1 G Add0~22_combout $end
$var wire 1 H Equal0~2_combout $end
$var wire 1 I Add0~23 $end
$var wire 1 J Add0~24_combout $end
$var wire 1 K Add0~25 $end
$var wire 1 L Add0~26_combout $end
$var wire 1 M Add0~27 $end
$var wire 1 N Add0~28_combout $end
$var wire 1 O Add0~29 $end
$var wire 1 P Add0~30_combout $end
$var wire 1 Q Equal0~3_combout $end
$var wire 1 R Equal0~4_combout $end
$var wire 1 S Add0~31 $end
$var wire 1 T Add0~32_combout $end
$var wire 1 U Add0~33 $end
$var wire 1 V Add0~34_combout $end
$var wire 1 W Add0~35 $end
$var wire 1 X Add0~36_combout $end
$var wire 1 Y Add0~37 $end
$var wire 1 Z Add0~38_combout $end
$var wire 1 [ Equal0~5_combout $end
$var wire 1 \ Add0~39 $end
$var wire 1 ] Add0~40_combout $end
$var wire 1 ^ Add0~41 $end
$var wire 1 _ Add0~42_combout $end
$var wire 1 ` Equal0~6_combout $end
$var wire 1 a Add0~43 $end
$var wire 1 b Add0~44_combout $end
$var wire 1 c Add0~45 $end
$var wire 1 d Add0~46_combout $end
$var wire 1 e Equal0~7_combout $end
$var wire 1 f Add0~47 $end
$var wire 1 g Add0~48_combout $end
$var wire 1 h Add0~49 $end
$var wire 1 i Add0~50_combout $end
$var wire 1 j Add0~51 $end
$var wire 1 k Add0~52_combout $end
$var wire 1 l Add0~53 $end
$var wire 1 m Add0~54_combout $end
$var wire 1 n Equal0~8_combout $end
$var wire 1 o Add0~55 $end
$var wire 1 p Add0~56_combout $end
$var wire 1 q Add0~57 $end
$var wire 1 r Add0~58_combout $end
$var wire 1 s Add0~59 $end
$var wire 1 t Add0~60_combout $end
$var wire 1 u Add0~61 $end
$var wire 1 v Add0~62_combout $end
$var wire 1 w Equal0~9_combout $end
$var wire 1 x Equal0~10_combout $end
$var wire 1 y OUT~0_combout $end
$var wire 1 z OUT~reg0_q $end
$var wire 1 { count [31] $end
$var wire 1 | count [30] $end
$var wire 1 } count [29] $end
$var wire 1 ~ count [28] $end
$var wire 1 !! count [27] $end
$var wire 1 "! count [26] $end
$var wire 1 #! count [25] $end
$var wire 1 $! count [24] $end
$var wire 1 %! count [23] $end
$var wire 1 &! count [22] $end
$var wire 1 '! count [21] $end
$var wire 1 (! count [20] $end
$var wire 1 )! count [19] $end
$var wire 1 *! count [18] $end
$var wire 1 +! count [17] $end
$var wire 1 ,! count [16] $end
$var wire 1 -! count [15] $end
$var wire 1 .! count [14] $end
$var wire 1 /! count [13] $end
$var wire 1 0! count [12] $end
$var wire 1 1! count [11] $end
$var wire 1 2! count [10] $end
$var wire 1 3! count [9] $end
$var wire 1 4! count [8] $end
$var wire 1 5! count [7] $end
$var wire 1 6! count [6] $end
$var wire 1 7! count [5] $end
$var wire 1 8! count [4] $end
$var wire 1 9! count [3] $end
$var wire 1 :! count [2] $end
$var wire 1 ;! count [1] $end
$var wire 1 <! count [0] $end
$upscope $end
$upscope $end
$enddefinitions $end
#0
$dumpvars
0!
0"
0#
1$
x%
1&
1'
1(
0)
0*
1+
1,
0-
0.
1/
00
01
02
03
04
15
06
07
08
09
1:
0;
0<
0=
0>
0?
1@
0A
0B
0C
1D
0E
0F
0G
1H
1I
0J
0K
0L
1M
0N
0O
0P
1Q
0R
1S
0T
0U
0V
1W
0X
0Y
0Z
1[
1\
0]
0^
0_
1`
1a
0b
0c
0d
1e
1f
0g
0h
0i
1j
0k
0l
0m
1n
1o
0p
0q
0r
1s
0t
0u
0v
1w
0x
0y
0z
0<!
0;!
0:!
09!
08!
07!
06!
05!
04!
03!
02!
01!
00!
0/!
0.!
0-!
0,!
0+!
0*!
0)!
0(!
0'!
0&!
0%!
0$!
0#!
0"!
0!!
0~
0}
0|
0{
$end
#500
1!
1*
1<!
1-
0+
1.
0,
#1000
0!
0*
#1500
1!
1*
1;!
0<!
0/
0-
1+
0.
10
1/
1.
1,
00
11
01
#2000
0!
0*
#2500
1!
1*
1<!
1-
0+
0/
0.
0,
10
11
#3000
0!
0*
#3500
1!
1*
1:!
0;!
0<!
14
12
00
1/
0-
1+
1.
02
10
13
01
0.
1,
03
11
#4000
0!
0*
#4500
1!
1*
1<!
04
1-
0+
1.
0,
#5000
0!
0*
#5500
1!
1*
1;!
0<!
0/
0-
1+
0.
12
00
1/
1.
1,
02
10
13
01
03
11
#6000
0!
0*
#6500
1!
1*
1<!
1-
0+
0/
0.
0,
12
00
13
01
#7000
0!
0*
#7500
1!
1*
19!
0:!
0;!
0<!
05
02
10
1/
0-
1+
03
1.
15
00
16
13
11
0.
1,
06
01
#8000
0!
0*
#8500
1!
1*
1<!
1-
0+
1.
0,
#9000
0!
0*
#9500
1!
1*
1;!
0<!
0/
0-
1+
0.
10
1/
1.
1,
00
11
01
#10000
0!
0*
#10500
1!
1*
1<!
1-
0+
0/
0.
0,
10
11
#11000
0!
0*
#11500
1!
1*
1:!
0;!
0<!
12
00
1/
0-
1+
1.
05
02
10
03
01
0.
1,
15
16
13
11
06
#12000
0!
0*
#12500
1!
1*
1<!
1-
0+
1.
0,
#13000
0!
0*
#13500
1!
1*
1;!
0<!
0/
0-
1+
0.
12
00
1/
1.
1,
05
02
10
03
01
15
16
13
11
06
#14000
0!
0*
#14500
1!
1*
1<!
1-
0+
0/
0.
0,
12
00
05
03
01
16
#15000
0!
0*
#15500
1!
1*
18!
09!
0:!
0;!
0<!
17
15
02
10
1/
0-
1+
06
13
1.
18
07
00
16
03
11
0.
1,
08
19
01
09
#16000
0!
0*
#16500
1!
1*
1<!
1-
0+
1.
0,
#17000
0!
0*
#17500
1!
1*
1;!
0<!
0/
0-
1+
0.
10
1/
1.
1,
00
11
01
#18000
0!
0*
#18500
1!
1*
1<!
1-
0+
0/
0.
0,
10
11
#19000
0!
0*
#19500
1!
1*
1:!
0;!
0<!
14
12
00
1/
0-
1+
1.
02
10
13
01
0.
1,
03
11
#20000
0!
0*
#20500
1!
1*
1<!
04
1-
0+
1.
0,
#21000
0!
0*
#21500
1!
1*
1;!
0<!
0/
0-
1+
0.
12
00
1/
1.
1,
02
10
13
01
03
11
#22000
0!
0*
#22500
1!
1*
1<!
1-
0+
0/
0.
0,
12
00
13
01
#23000
0!
0*
#23500
1!
1*
19!
0:!
0;!
0<!
05
02
10
1/
0-
1+
03
1.
17
15
00
06
13
11
0.
1,
18
07
16
01
08
19
09
#24000
0!
0*
#24500
1!
1*
1<!
1-
0+
1.
0,
#25000
0!
0*
#25500
1!
1*
1;!
0<!
0/
0-
1+
0.
10
1/
1.
1,
00
11
01
#26000
0!
0*
#26500
1!
1*
1<!
1-
0+
0/
0.
0,
10
11
#27000
0!
0*
#27500
1!
1*
1:!
0;!
0<!
12
00
1/
0-
1+
1.
05
02
10
03
01
0.
1,
17
15
06
13
11
18
07
16
08
19
09
#28000
0!
0*
#28500
1!
1*
1<!
1-
0+
1.
0,
#29000
0!
0*
#29500
1!
1*
1;!
0<!
0/
0-
1+
0.
12
00
1/
1.
1,
05
02
10
03
01
17
15
06
13
11
18
07
16
08
19
09
#30000
0!
0*
#30500
1!
1*
1<!
1-
0+
0/
0.
0,
12
00
05
03
01
17
06
18
19
#31000
0!
0*
#31500
1!
1*
17!
08!
09!
0:!
0;!
0<!
0:
08
07
15
02
10
1/
0-
1+
16
13
1.
1;
1:
18
00
09
06
03
11
0.
1,
0;
1<
19
01
0<
#32000
0!
0*
#32500
1!
1*
1<!
1-
0+
1.
0,
#33000
0!
0*
#33500
1!
1*
1;!
0<!
0/
0-
1+
0.
10
1/
1.
1,
00
11
01
#34000
0!
0*
#34500
1!
1*
1<!
1-
0+
0/
0.
0,
10
11
#35000
0!
0*
#35500
1!
1*
1:!
0;!
0<!
14
12
00
1/
0-
1+
1.
02
10
13
01
0.
1,
03
11
#36000
0!
0*
#36500
1!
1*
1<!
04
1-
0+
1.
0,
#37000
0!
0*
#37500
1!
1*
1;!
0<!
0/
0-
1+
0.
12
00
1/
1.
1,
02
10
13
01
03
11
#38000
0!
0*
#38500
1!
1*
1<!
1-
0+
0/
0.
0,
12
00
13
01
#39000
0!
0*
#39500
1!
1*
19!
0:!
0;!
0<!
05
02
10
1/
0-
1+
03
1.
15
00
16
13
11
0.
1,
06
01
#40000
0!
0*
#40500
1!
1*
1<!
1-
0+
1.
0,
#41000
0!
0*
#41500
1!
1*
1;!
0<!
0/
0-
1+
0.
10
1/
1.
1,
00
11
01
#42000
0!
0*
#42500
1!
1*
1<!
1-
0+
0/
0.
0,
10
11
#43000
0!
0*
#43500
1!
1*
1:!
0;!
0<!
12
00
1/
0-
1+
1.
05
02
10
03
01
0.
1,
15
16
13
11
06
#44000
0!
0*
#44500
1!
1*
1<!
1-
0+
1.
0,
#45000
0!
0*
#45500
1!
1*
1;!
0<!
0/
0-
1+
0.
12
00
1/
1.
1,
05
02
10
03
01
15
16
13
11
06
#46000
0!
0*
#46500
1!
1*
1<!
1-
0+
0/
0.
0,
12
00
05
03
01
16
#47000
0!
0*
#47500
1!
1*
18!
09!
0:!
0;!
0<!
17
15
02
10
1/
0-
1+
06
13
1.
0:
08
07
00
16
03
11
0.
1,
1;
1:
18
09
01
0;
1<
19
0<
#48000
0!
0*
#48500
1!
1*
1<!
1-
0+
1.
0,
#49000
0!
0*
#49500
1!
1*
1;!
0<!
0/
0-
1+
0.
10
1/
1.
1,
00
11
01
#50000
0!
0*
#50500
1!
1*
1<!
1-
0+
0/
0.
0,
10
11
#51000
0!
0*
#51500
1!
1*
1:!
0;!
0<!
14
12
00
1/
0-
1+
1.
02
10
13
01
0.
1,
03
11
#52000
0!
0*
#52500
1!
1*
1<!
04
1-
0+
1.
0,
#53000
0!
0*
#53500
1!
1*
1;!
0<!
0/
0-
1+
0.
12
00
1/
1.
1,
02
10
13
01
03
11
#54000
0!
0*
#54500
1!
1*
1<!
1-
0+
0/
0.
0,
12
00
13
01
#55000
0!
0*
#55500
1!
1*
19!
0:!
0;!
0<!
05
02
10
1/
0-
1+
03
1.
17
15
00
06
13
11
0.
1,
0:
08
07
16
01
1;
1:
18
09
0;
1<
19
0<
#56000
0!
0*
#56500
1!
1*
1<!
1-
0+
1.
0,
#57000
0!
0*
#57500
1!
1*
1;!
0<!
0/
0-
1+
0.
10
1/
1.
1,
00
11
01
#58000
0!
0*
#58500
1!
1*
1<!
1-
0+
0/
0.
0,
10
11
#59000
0!
0*
#59500
1!
1*
1:!
0;!
0<!
12
00
1/
0-
1+
1.
05
02
10
03
01
0.
1,
17
15
06
13
11
0:
08
07
16
1;
1:
18
09
0;
1<
19
0<
#60000
0!
0*
#60500
1!
1*
1<!
1-
0+
1.
0,
#61000
0!
0*
#61500
1!
1*
1;!
0<!
0/
0-
1+
0.
12
00
1/
1.
1,
05
02
10
03
01
17
15
06
13
11
0:
08
07
16
1;
1:
18
09
0;
1<
19
0<
#62000
0!
0*
#62500
1!
1*
1<!
1-
0+
0/
0.
0,
12
00
05
03
01
17
06
0:
08
1;
09
1<
#63000
0!
0*
#63500
1!
1*
16!
07!
08!
09!
0:!
0;!
0<!
1=
0;
1:
18
07
15
02
10
1/
0-
1+
16
13
1.
0=
1;
08
00
1>
0<
19
06
03
11
0.
1,
0>
1<
09
01
#64000
0!
0*
#64500
1!
1*
1<!
1-
0+
1.
0,
#65000
0!
0*
#65500
1!
1*
1;!
0<!
0/
0-
1+
0.
10
1/
1.
1,
00
11
01
#66000
0!
0*
#66500
1!
1*
1<!
1-
0+
0/
0.
0,
10
11
#67000
0!
0*
#67500
1!
1*
1:!
0;!
0<!
14
12
00
1/
0-
1+
1.
02
10
13
01
0.
1,
03
11
#68000
0!
0*
#68500
1!
1*
1<!
04
1-
0+
1.
0,
#69000
0!
0*
#69500
1!
1*
1;!
0<!
0/
0-
1+
0.
12
00
1/
1.
1,
02
10
13
01
03
11
#70000
0!
0*
#70500
1!
1*
1<!
1-
0+
0/
0.
0,
12
00
13
01
#71000
0!
0*
#71500
1!
1*
19!
0:!
0;!
0<!
05
02
10
1/
0-
1+
03
1.
15
00
16
13
11
0.
1,
06
01
#72000
0!
0*
#72500
1!
1*
1<!
1-
0+
1.
0,
#73000
0!
0*
#73500
1!
1*
1;!
0<!
0/
0-
1+
0.
10
1/
1.
1,
00
11
01
#74000
0!
0*
#74500
1!
1*
1<!
1-
0+
0/
0.
0,
10
11
#75000
0!
0*
#75500
1!
1*
1:!
0;!
0<!
12
00
1/
0-
1+
1.
05
02
10
03
01
0.
1,
15
16
13
11
06
#76000
0!
0*
#76500
1!
1*
1<!
1-
0+
1.
0,
#77000
0!
0*
#77500
1!
1*
1;!
0<!
0/
0-
1+
0.
12
00
1/
1.
1,
05
02
10
03
01
15
16
13
11
06
#78000
0!
0*
#78500
1!
1*
1<!
1-
0+
0/
0.
0,
12
00
05
03
01
16
#79000
0!
0*
#79500
1!
1*
18!
09!
0:!
0;!
0<!
17
15
02
10
1/
0-
1+
06
13
1.
18
07
00
16
03
11
0.
1,
08
19
01
09
#80000
0!
0*
#80500
1!
1*
1<!
1-
0+
1.
0,
#81000
0!
0*
#81500
1!
1*
1;!
0<!
0/
0-
1+
0.
10
1/
1.
1,
00
11
01
#82000
0!
0*
#82500
1!
1*
1<!
1-
0+
0/
0.
0,
10
11
#83000
0!
0*
#83500
1!
1*
1:!
0;!
0<!
14
12
00
1/
0-
1+
1.
02
10
13
01
0.
1,
03
11
#84000
0!
0*
#84500
1!
1*
1<!
04
1-
0+
1.
0,
#85000
0!
0*
#85500
1!
1*
1;!
0<!
0/
0-
1+
0.
12
00
1/
1.
1,
02
10
13
01
03
11
#86000
0!
0*
#86500
1!
1*
1<!
1-
0+
0/
0.
0,
12
00
13
01
#87000
0!
0*
#87500
1!
1*
19!
0:!
0;!
0<!
05
02
10
1/
0-
1+
03
1.
17
15
00
06
13
11
0.
1,
18
07
16
01
08
19
09
#88000
0!
0*
#88500
1!
1*
1<!
1-
0+
1.
0,
#89000
0!
0*
#89500
1!
1*
1;!
0<!
0/
0-
1+
0.
10
1/
1.
1,
00
11
01
#90000
0!
0*
#90500
1!
1*
1<!
1-
0+
0/
0.
0,
10
11
#91000
0!
0*
#91500
1!
1*
1:!
0;!
0<!
12
00
1/
0-
1+
1.
05
02
10
03
01
0.
1,
17
15
06
13
11
18
07
16
08
19
09
#92000
0!
0*
#92500
1!
1*
1<!
1-
0+
1.
0,
#93000
0!
0*
#93500
1!
1*
1;!
0<!
0/
0-
1+
0.
12
00
1/
1.
1,
05
02
10
03
01
17
15
06
13
11
18
07
16
08
19
09
#94000
0!
0*
#94500
1!
1*
1<!
1-
0+
0/
0.
0,
12
00
05
03
01
17
06
18
19
#95000
0!
0*
#95500
1!
1*
17!
08!
09!
0:!
0;!
0<!
1?
0:
08
07
15
02
10
1/
0-
1+
16
13
1.
1=
0;
1:
18
00
09
06
03
11
0.
1,
0=
1;
1>
0<
19
01
0>
1<
#96000
0!
0*
#96500
1!
1*
1<!
1-
0+
1.
0,
#97000
0!
0*
#97500
1!
1*
1;!
0<!
0/
0-
1+
0.
10
1/
1.
1,
00
11
01
#98000
0!
0*
#98500
1!
1*
1<!
1-
0+
0/
0.
0,
10
11
#99000
0!
0*
#99500
1!
1*
1:!
0;!
0<!
14
12
00
1/
0-
1+
1.
1R
02
10
13
01
0.
1,
1x
03
11
1y
0<
09
01
0,
#100000
0!
0*
#100500
1!
1*
06!
07!
0:!
1z
1)
0?
0;
08
04
00
1"
0y
0R
0x
1y
1,
#101000
0!
0*
#101500
1!
1*
1<!
1-
0+
1.
0,
#102000
0!
0*
#102500
1!
1*
1;!
0<!
0/
0-
1+
0.
10
1/
1.
1,
00
11
01
#103000
0!
0*
#103500
1!
1*
1<!
1-
0+
0/
0.
0,
10
11
#104000
0!
0*
#104500
1!
1*
1:!
0;!
0<!
14
12
00
1/
0-
1+
1.
02
10
13
01
0.
1,
03
11
#105000
0!
0*
#105500
1!
1*
1<!
04
1-
0+
1.
0,
#106000
0!
0*
#106500
1!
1*
1;!
0<!
0/
0-
1+
0.
12
00
1/
1.
1,
02
10
13
01
03
11
#107000
0!
0*
#107500
1!
1*
1<!
1-
0+
0/
0.
0,
12
00
13
01
#108000
0!
0*
#108500
1!
1*
19!
0:!
0;!
0<!
05
02
10
1/
0-
1+
03
1.
15
00
16
13
11
0.
1,
06
01
#109000
0!
0*
#109500
1!
1*
1<!
1-
0+
1.
0,
#110000
0!
0*
#110500
1!
1*
1;!
0<!
0/
0-
1+
0.
10
1/
1.
1,
00
11
01
#111000
0!
0*
#111500
1!
1*
1<!
1-
0+
0/
0.
0,
10
11
#112000
0!
0*
#112500
1!
1*
1:!
0;!
0<!
12
00
1/
0-
1+
1.
05
02
10
03
01
0.
1,
15
16
13
11
06
#113000
0!
0*
#113500
1!
1*
1<!
1-
0+
1.
0,
#114000
0!
0*
#114500
1!
1*
1;!
0<!
0/
0-
1+
0.
12
00
1/
1.
1,
05
02
10
03
01
15
16
13
11
06
#115000
0!
0*
#115500
1!
1*
1<!
1-
0+
0/
0.
0,
12
00
05
03
01
16
#116000
0!
0*
#116500
1!
1*
18!
09!
0:!
0;!
0<!
17
15
02
10
1/
0-
1+
06
13
1.
18
07
00
16
03
11
0.
1,
08
19
01
09
#117000
0!
0*
#117500
1!
1*
1<!
1-
0+
1.
0,
#118000
0!
0*
#118500
1!
1*
1;!
0<!
0/
0-
1+
0.
10
1/
1.
1,
00
11
01
#119000
0!
0*
#119500
1!
1*
1<!
1-
0+
0/
0.
0,
10
11
#120000
0!
0*
#120500
1!
1*
1:!
0;!
0<!
14
12
00
1/
0-
1+
1.
02
10
13
01
0.
1,
03
11
#121000
0!
0*
#121500
1!
1*
1<!
04
1-
0+
1.
0,
#122000
0!
0*
#122500
1!
1*
1;!
0<!
0/
0-
1+
0.
12
00
1/
1.
1,
02
10
13
01
03
11
#123000
0!
0*
#123500
1!
1*
1<!
1-
0+
0/
0.
0,
12
00
13
01
#124000
0!
0*
#124500
1!
1*
19!
0:!
0;!
0<!
05
02
10
1/
0-
1+
03
1.
17
15
00
06
13
11
0.
1,
18
07
16
01
08
19
09
#125000
0!
0*
#125500
1!
1*
1<!
1-
0+
1.
0,
#126000
0!
0*
#126500
1!
1*
1;!
0<!
0/
0-
1+
0.
10
1/
1.
1,
00
11
01
#127000
0!
0*
#127500
1!
1*
1<!
1-
0+
0/
0.
0,
10
11
#128000
0!
0*
#128500
1!
1*
1:!
0;!
0<!
12
00
1/
0-
1+
1.
05
02
10
03
01
0.
1,
17
15
06
13
11
18
07
16
08
19
09
#129000
0!
0*
#129500
1!
1*
1<!
1-
0+
1.
0,
#130000
0!
0*
#130500
1!
1*
1;!
0<!
0/
0-
1+
0.
12
00
1/
1.
1,
05
02
10
03
01
17
15
06
13
11
18
07
16
08
19
09
#131000
0!
0*
#131500
1!
1*
1<!
1-
0+
0/
0.
0,
12
00
05
03
01
17
06
18
19
#132000
0!
0*
#132500
1!
1*
17!
08!
09!
0:!
0;!
0<!
0:
08
07
15
02
10
1/
0-
1+
16
13
1.
1;
1:
18
00
09
06
03
11
0.
1,
0;
1<
19
01
0<
#133000
0!
0*
#133500
1!
1*
1<!
1-
0+
1.
0,
#134000
0!
0*
#134500
1!
1*
1;!
0<!
0/
0-
1+
0.
10
1/
1.
1,
00
11
01
#135000
0!
0*
#135500
1!
1*
1<!
1-
0+
0/
0.
0,
10
11
#136000
0!
0*
#136500
1!
1*
1:!
0;!
0<!
14
12
00
1/
0-
1+
1.
02
10
13
01
0.
1,
03
11
#137000
0!
0*
#137500
1!
1*
1<!
04
1-
0+
1.
0,
#138000
0!
0*
#138500
1!
1*
1;!
0<!
0/
0-
1+
0.
12
00
1/
1.
1,
02
10
13
01
03
11
#139000
0!
0*
#139500
1!
1*
1<!
1-
0+
0/
0.
0,
12
00
13
01
#140000
0!
0*
#140500
1!
1*
19!
0:!
0;!
0<!
05
02
10
1/
0-
1+
03
1.
15
00
16
13
11
0.
1,
06
01
#141000
0!
0*
#141500
1!
1*
1<!
1-
0+
1.
0,
#142000
0!
0*
#142500
1!
1*
1;!
0<!
0/
0-
1+
0.
10
1/
1.
1,
00
11
01
#143000
0!
0*
#143500
1!
1*
1<!
1-
0+
0/
0.
0,
10
11
#144000
0!
0*
#144500
1!
1*
1:!
0;!
0<!
12
00
1/
0-
1+
1.
05
02
10
03
01
0.
1,
15
16
13
11
06
#145000
0!
0*
#145500
1!
1*
1<!
1-
0+
1.
0,
#146000
0!
0*
#146500
1!
1*
1;!
0<!
0/
0-
1+
0.
12
00
1/
1.
1,
05
02
10
03
01
15
16
13
11
06
#147000
0!
0*
#147500
1!
1*
1<!
1-
0+
0/
0.
0,
12
00
05
03
01
16
#148000
0!
0*
#148500
1!
1*
18!
09!
0:!
0;!
0<!
17
15
02
10
1/
0-
1+
06
13
1.
0:
08
07
00
16
03
11
0.
1,
1;
1:
18
09
01
0;
1<
19
0<
#149000
0!
0*
#149500
1!
1*
1<!
1-
0+
1.
0,
#150000
0!
0*
#150500
1!
1*
1;!
0<!
0/
0-
1+
0.
10
1/
1.
1,
00
11
01
#151000
0!
0*
#151500
1!
1*
1<!
1-
0+
0/
0.
0,
10
11
#152000
0!
0*
#152500
1!
1*
1:!
0;!
0<!
14
12
00
1/
0-
1+
1.
02
10
13
01
0.
1,
03
11
#153000
0!
0*
#153500
1!
1*
1<!
04
1-
0+
1.
0,
#154000
0!
0*
#154500
1!
1*
1;!
0<!
0/
0-
1+
0.
12
00
1/
1.
1,
02
10
13
01
03
11
#155000
0!
0*
#155500
1!
1*
1<!
1-
0+
0/
0.
0,
12
00
13
01
#156000
0!
0*
#156500
1!
1*
19!
0:!
0;!
0<!
05
02
10
1/
0-
1+
03
1.
17
15
00
06
13
11
0.
1,
0:
08
07
16
01
1;
1:
18
09
0;
1<
19
0<
#157000
0!
0*
#157500
1!
1*
1<!
1-
0+
1.
0,
#158000
0!
0*
#158500
1!
1*
1;!
0<!
0/
0-
1+
0.
10
1/
1.
1,
00
11
01
#159000
0!
0*
#159500
1!
1*
1<!
1-
0+
0/
0.
0,
10
11
#160000
0!
0*
#160500
1!
1*
1:!
0;!
0<!
12
00
1/
0-
1+
1.
05
02
10
03
01
0.
1,
17
15
06
13
11
0:
08
07
16
1;
1:
18
09
0;
1<
19
0<
#161000
0!
0*
#161500
1!
1*
1<!
1-
0+
1.
0,
#162000
0!
0*
#162500
1!
1*
1;!
0<!
0/
0-
1+
0.
12
00
1/
1.
1,
05
02
10
03
01
17
15
06
13
11
0:
08
07
16
1;
1:
18
09
0;
1<
19
0<
#163000
0!
0*
#163500
1!
1*
1<!
1-
0+
0/
0.
0,
12
00
05
03
01
17
06
0:
08
1;
09
1<
#164000
0!
0*
#164500
1!
1*
16!
07!
08!
09!
0:!
0;!
0<!
1=
0;
1:
18
07
15
02
10
1/
0-
1+
16
13
1.
0=
1;
08
00
1>
0<
19
06
03
11
0.
1,
0>
1<
09
01
#165000
0!
0*
#165500
1!
1*
1<!
1-
0+
1.
0,
#166000
0!
0*
#166500
1!
1*
1;!
0<!
0/
0-
1+
0.
10
1/
1.
1,
00
11
01
#167000
0!
0*
#167500
1!
1*
1<!
1-
0+
0/
0.
0,
10
11
#168000
0!
0*
#168500
1!
1*
1:!
0;!
0<!
14
12
00
1/
0-
1+
1.
02
10
13
01
0.
1,
03
11
#169000
0!
0*
#169500
1!
1*
1<!
04
1-
0+
1.
0,
#170000
0!
0*
#170500
1!
1*
1;!
0<!
0/
0-
1+
0.
12
00
1/
1.
1,
02
10
13
01
03
11
#171000
0!
0*
#171500
1!
1*
1<!
1-
0+
0/
0.
0,
12
00
13
01
#172000
0!
0*
#172500
1!
1*
19!
0:!
0;!
0<!
05
02
10
1/
0-
1+
03
1.
15
00
16
13
11
0.
1,
06
01
#173000
0!
0*
#173500
1!
1*
1<!
1-
0+
1.
0,
#174000
0!
0*
#174500
1!
1*
1;!
0<!
0/
0-
1+
0.
10
1/
1.
1,
00
11
01
#175000
0!
0*
#175500
1!
1*
1<!
1-
0+
0/
0.
0,
10
11
#176000
0!
0*
#176500
1!
1*
1:!
0;!
0<!
12
00
1/
0-
1+
1.
05
02
10
03
01
0.
1,
15
16
13
11
06
#177000
0!
0*
#177500
1!
1*
1<!
1-
0+
1.
0,
#178000
0!
0*
#178500
1!
1*
1;!
0<!
0/
0-
1+
0.
12
00
1/
1.
1,
05
02
10
03
01
15
16
13
11
06
#179000
0!
0*
#179500
1!
1*
1<!
1-
0+
0/
0.
0,
12
00
05
03
01
16
#180000
0!
0*
#180500
1!
1*
18!
09!
0:!
0;!
0<!
17
15
02
10
1/
0-
1+
06
13
1.
18
07
00
16
03
11
0.
1,
08
19
01
09
#181000
0!
0*
#181500
1!
1*
1<!
1-
0+
1.
0,
#182000
0!
0*
#182500
1!
1*
1;!
0<!
0/
0-
1+
0.
10
1/
1.
1,
00
11
01
#183000
0!
0*
#183500
1!
1*
1<!
1-
0+
0/
0.
0,
10
11
#184000
0!
0*
#184500
1!
1*
1:!
0;!
0<!
14
12
00
1/
0-
1+
1.
02
10
13
01
0.
1,
03
11
#185000
0!
0*
#185500
1!
1*
1<!
04
1-
0+
1.
0,
#186000
0!
0*
#186500
1!
1*
1;!
0<!
0/
0-
1+
0.
12
00
1/
1.
1,
02
10
13
01
03
11
#187000
0!
0*
#187500
1!
1*
1<!
1-
0+
0/
0.
0,
12
00
13
01
#188000
0!
0*
#188500
1!
1*
19!
0:!
0;!
0<!
05
02
10
1/
0-
1+
03
1.
17
15
00
06
13
11
0.
1,
18
07
16
01
08
19
09
#189000
0!
0*
#189500
1!
1*
1<!
1-
0+
1.
0,
#190000
0!
0*
#190500
1!
1*
1;!
0<!
0/
0-
1+
0.
10
1/
1.
1,
00
11
01
#191000
0!
0*
#191500
1!
1*
1<!
1-
0+
0/
0.
0,
10
11
#192000
0!
0*
#192500
1!
1*
1:!
0;!
0<!
12
00
1/
0-
1+
1.
05
02
10
03
01
0.
1,
17
15
06
13
11
18
07
16
08
19
09
#193000
0!
0*
#193500
1!
1*
1<!
1-
0+
1.
0,
#194000
0!
0*
#194500
1!
1*
1;!
0<!
0/
0-
1+
0.
12
00
1/
1.
1,
05
02
10
03
01
17
15
06
13
11
18
07
16
08
19
09
#195000
0!
0*
#195500
1!
1*
1<!
1-
0+
0/
0.
0,
12
00
05
03
01
17
06
18
19
#196000
0!
0*
#196500
1!
1*
17!
08!
09!
0:!
0;!
0<!
1?
0:
08
07
15
02
10
1/
0-
1+
16
13
1.
1=
0;
1:
18
00
09
06
03
11
0.
1,
0=
1;
1>
0<
19
01
0>
1<
#197000
0!
0*
#197500
1!
1*
1<!
1-
0+
1.
0,
#198000
0!
0*
#198500
1!
1*
1;!
0<!
0/
0-
1+
0.
10
1/
1.
1,
00
11
01
#199000
0!
0*
#199500
1!
1*
1<!
1-
0+
0/
0.
0,
10
11
#200000
0!
0*
#200500
1!
1*
1:!
0;!
0<!
14
12
00
1/
0-
1+
1.
1R
02
10
13
01
0.
1,
1x
03
11
0y
0<
09
01
0,
#201000
0!
0*
#201500
1!
1*
06!
07!
0:!
0z
0)
0?
0;
08
04
00
0"
1y
0R
0x
0y
1,
#202000
0!
0*
#202500
1!
1*
1<!
1-
0+
1.
0,
#203000
0!
0*
#203500
1!
1*
1;!
0<!
0/
0-
1+
0.
10
1/
1.
1,
00
11
01
#204000
0!
0*
#204500
1!
1*
1<!
1-
0+
0/
0.
0,
10
11
#205000
0!
0*
#205500
1!
1*
1:!
0;!
0<!
14
12
00
1/
0-
1+
1.
02
10
13
01
0.
1,
03
11
#206000
0!
0*
#206500
1!
1*
1<!
04
1-
0+
1.
0,
#207000
0!
0*
#207500
1!
1*
1;!
0<!
0/
0-
1+
0.
12
00
1/
1.
1,
02
10
13
01
03
11
#208000
0!
0*
#208500
1!
1*
1<!
1-
0+
0/
0.
0,
12
00
13
01
#209000
0!
0*
#209500
1!
1*
19!
0:!
0;!
0<!
05
02
10
1/
0-
1+
03
1.
15
00
16
13
11
0.
1,
06
01
#210000
0!
0*
#210500
1!
1*
1<!
1-
0+
1.
0,
#211000
0!
0*
