Serial To SPI/simulation/qsim/SerialtoSpi.msim.vcd
$comment
	File created using the following command:
		vcd file SerialtoSpi.msim.vcd -direction
$end
$date
	Sat Mar 19 22:55:33 2016
$end
$version
	ModelSim Version 10.4b
$end
$timescale
	1ps
$end

$scope module UART_IN_vlg_vec_tst $end
$var reg 1 ! RTS $end
$var reg 1 " TX_D $end
$var reg 1 # clk $end
$var wire 1 $ BYTEOUT [7] $end
$var wire 1 % BYTEOUT [6] $end
$var wire 1 & BYTEOUT [5] $end
$var wire 1 ' BYTEOUT [4] $end
$var wire 1 ( BYTEOUT [3] $end
$var wire 1 ) BYTEOUT [2] $end
$var wire 1 * BYTEOUT [1] $end
$var wire 1 + BYTEOUT [0] $end
$var wire 1 , CTS $end
$var wire 1 - load $end
$var wire 1 . newclk $end

$scope module i1 $end
$var wire 1 / gnd $end
$var wire 1 0 vcc $end
$var wire 1 1 unknown $end
$var tri1 1 2 devclrn $end
$var tri1 1 3 devpor $end
$var tri1 1 4 devoe $end
$var wire 1 5 RTS~input_o $end
$var wire 1 6 newclk~output_o $end
$var wire 1 7 CTS~output_o $end
$var wire 1 8 BYTEOUT[0]~output_o $end
$var wire 1 9 BYTEOUT[1]~output_o $end
$var wire 1 : BYTEOUT[2]~output_o $end
$var wire 1 ; BYTEOUT[3]~output_o $end
$var wire 1 < BYTEOUT[4]~output_o $end
$var wire 1 = BYTEOUT[5]~output_o $end
$var wire 1 > BYTEOUT[6]~output_o $end
$var wire 1 ? BYTEOUT[7]~output_o $end
$var wire 1 @ load~output_o $end
$var wire 1 A clk~input_o $end
$var wire 1 B clk~inputclkctrl_outclk $end
$var wire 1 C change_CLK|Add0~0_combout $end
$var wire 1 D change_CLK|Add0~1 $end
$var wire 1 E change_CLK|Add0~2_combout $end
$var wire 1 F change_CLK|Add0~3 $end
$var wire 1 G change_CLK|Add0~4_combout $end
$var wire 1 H change_CLK|count~0_combout $end
$var wire 1 I change_CLK|Add0~5 $end
$var wire 1 J change_CLK|Add0~6_combout $end
$var wire 1 K change_CLK|count~9_combout $end
$var wire 1 L change_CLK|Add0~7 $end
$var wire 1 M change_CLK|Add0~8_combout $end
$var wire 1 N change_CLK|count~11_combout $end
$var wire 1 O change_CLK|Add0~9 $end
$var wire 1 P change_CLK|Add0~10_combout $end
$var wire 1 Q change_CLK|count~10_combout $end
$var wire 1 R change_CLK|Add0~11 $end
$var wire 1 S change_CLK|Add0~12_combout $end
$var wire 1 T change_CLK|count~12_combout $end
$var wire 1 U change_CLK|newclk~clkctrl_outclk $end
$var wire 1 V TX_D~input_o $end
$var wire 1 W count[3]~2_combout $end
$var wire 1 X Add0~0_combout $end
$var wire 1 Y count[2]~4_combout $end
$var wire 1 Z Add0~1_combout $end
$var wire 1 [ count[3]~6_combout $end
$var wire 1 \ always0~0_combout $end
$var wire 1 ] count[3]~3_combout $end
$var wire 1 ^ count[0]~7_combout $end
$var wire 1 _ count[1]~5_combout $end
$var wire 1 ` change~0_combout $end
$var wire 1 a change~q $end
$var wire 1 b change_CLK|newclk~3_combout $end
$var wire 1 c change_CLK|newclk~4_combout $end
$var wire 1 d change_CLK|count~14_combout $end
$var wire 1 e change_CLK|newclk~5_combout $end
$var wire 1 f change_CLK|newclk~6_combout $end
$var wire 1 g change_CLK|Add0~13 $end
$var wire 1 h change_CLK|Add0~14_combout $end
$var wire 1 i change_CLK|count~13_combout $end
$var wire 1 j change_CLK|Add0~15 $end
$var wire 1 k change_CLK|Add0~16_combout $end
$var wire 1 l change_CLK|count~1_combout $end
$var wire 1 m change_CLK|Add0~17 $end
$var wire 1 n change_CLK|Add0~18_combout $end
$var wire 1 o change_CLK|count~2_combout $end
$var wire 1 p change_CLK|Add0~19 $end
$var wire 1 q change_CLK|Add0~20_combout $end
$var wire 1 r change_CLK|count~3_combout $end
$var wire 1 s change_CLK|Add0~21 $end
$var wire 1 t change_CLK|Add0~22_combout $end
$var wire 1 u change_CLK|count~4_combout $end
$var wire 1 v change_CLK|Add0~23 $end
$var wire 1 w change_CLK|Add0~24_combout $end
$var wire 1 x change_CLK|count~5_combout $end
$var wire 1 y change_CLK|Add0~25 $end
$var wire 1 z change_CLK|Add0~26_combout $end
$var wire 1 { change_CLK|count~6_combout $end
$var wire 1 | change_CLK|Add0~27 $end
$var wire 1 } change_CLK|Add0~28_combout $end
$var wire 1 ~ change_CLK|count~7_combout $end
$var wire 1 !! change_CLK|Add0~29 $end
$var wire 1 "! change_CLK|Add0~30_combout $end
$var wire 1 #! change_CLK|count~8_combout $end
$var wire 1 $! change_CLK|newclk~0_combout $end
$var wire 1 %! change_CLK|newclk~1_combout $end
$var wire 1 &! change_CLK|newclk~2_combout $end
$var wire 1 '! change_CLK|newclk~7_combout $end
$var wire 1 (! change_CLK|newclk~q $end
$var wire 1 )! BYTEOUT[7]~reg0feeder_combout $end
$var wire 1 *! always0~1_combout $end
$var wire 1 +! BYTEOUT[7]~reg0_q $end
$var wire 1 ,! BYTEOUT[6]~reg0feeder_combout $end
$var wire 1 -! BYTEOUT[6]~reg0_q $end
$var wire 1 .! BYTEOUT[5]~reg0feeder_combout $end
$var wire 1 /! BYTEOUT[5]~reg0_q $end
$var wire 1 0! BYTEOUT[4]~reg0feeder_combout $end
$var wire 1 1! BYTEOUT[4]~reg0_q $end
$var wire 1 2! BYTEOUT[3]~reg0feeder_combout $end
$var wire 1 3! BYTEOUT[3]~reg0_q $end
$var wire 1 4! BYTEOUT[2]~reg0feeder_combout $end
$var wire 1 5! BYTEOUT[2]~reg0_q $end
$var wire 1 6! BYTEOUT[1]~reg0feeder_combout $end
$var wire 1 7! BYTEOUT[1]~reg0_q $end
$var wire 1 8! BYTEOUT[0]~reg0feeder_combout $end
$var wire 1 9! BYTEOUT[0]~reg0_q $end
$var wire 1 :! change_CLK|count [15] $end
$var wire 1 ;! change_CLK|count [14] $end
$var wire 1 <! change_CLK|count [13] $end
$var wire 1 =! change_CLK|count [12] $end
$var wire 1 >! change_CLK|count [11] $end
$var wire 1 ?! change_CLK|count [10] $end
$var wire 1 @! change_CLK|count [9] $end
$var wire 1 A! change_CLK|count [8] $end
$var wire 1 B! change_CLK|count [7] $end
$var wire 1 C! change_CLK|count [6] $end
$var wire 1 D! change_CLK|count [5] $end
$var wire 1 E! change_CLK|count [4] $end
$var wire 1 F! change_CLK|count [3] $end
$var wire 1 G! change_CLK|count [2] $end
$var wire 1 H! change_CLK|count [1] $end
$var wire 1 I! change_CLK|count [0] $end
$var wire 1 J! count [3] $end
$var wire 1 K! count [2] $end
$var wire 1 L! count [1] $end
$var wire 1 M! count [0] $end
$upscope $end
$upscope $end
$enddefinitions $end
#0
$dumpvars
x!
1"
0#
x+
x*
x)
x(
x'
x&
x%
x$
1,
0-
x.
0/
10
x1
12
13
14
x5
x6
17
x8
x9
x:
x;
x<
x=
x>
x?
0@
0A
xB
xC
xD
xE
xF
xG
xH
xI
xJ
xK
xL
xM
xN
xO
xP
xQ
xR
xS
xT
xU
1V
xW
xX
xY
xZ
x[
x\
x]
x^
x_
x`
0a
xb
xc
xd
xe
xf
xg
xh
xi
xj
xk
xl
xm
xn
xo
xp
xq
xr
xs
xt
xu
xv
xw
xx
xy
xz
x{
x|
x}
x~
x!!
x"!
x#!
x$!
x%!
x&!
x'!
0(!
x)!
x*!
0+!
x,!
0-!
x.!
0/!
x0!
01!
x2!
03!
x4!
05!
x6!
07!
x8!
09!
0I!
0H!
0G!
0F!
0E!
0D!
0C!
0B!
0A!
0@!
0?!
0>!
0=!
0<!
0;!
0:!
0M!
0L!
0K!
0J!
$end
#138
0B
#426
02!
#427
0.!
#430
06!
#431
08!
#448
1\
#450
0b
#556
00!
#557
04!
#558
0,!
#568
0e
#660
0D
#665
0f
#667
0c
#697
1C
#700
0Z
#794
1$!
#802
0y
#812
0!!
#824
0O
#825
0g
#851
0X
#870
0_
#915
1%!
#923
1R
#924
1F
#940
1j
#942
1|
#954
1L
#956
1v
#1038
0s
#1053
0m
#1057
0I
#1066
0*!
#1097
0E
#1182
1p
#1218
1&!
#1222
0'!
#1239
0z
#1249
0"!
#1254
0[
#1261
0P
#1262
0h
#1360
0S
#1361
0G
#1377
0k
#1379
0}
#1391
0M
#1393
0w
#1403
0Y
#1475
0t
#1490
0n
#1494
0J
#1579
0U
#1619
0q
#1856
0d
#1915
0#!
#2005
0{
#2025
0Q
#2068
0K
#2075
0i
#2123
0T
#2125
0N
#2134
0~
#2154
0x
#2213
0u
#2314
0H
#2329
0l
#2468
0o
#2560
0r
#3228
08
0+
#3315
1)!
#3428
1W
#3436
0;
0(
#3656
0:
0)
#3696
09
0*
#3699
06
0.
#4032
0`
#4136
0]
#4671
0^
#5079
0>
0%
#5496
0<
0'
#5898
0=
0&
#6972
0?
0$
#10000
1#
#10514
1A
#10668
1B
#12404
1I!
#13033
0C
#13110
1D
#13145
0$!
#13565
1E
#13593
0&!
#14291
1d
#20000
0#
#20679
0A
#20817
0B
#30000
1#
#30514
1A
#30668
1B
#32402
1H!
#32404
0I!
#33064
0D
#33101
1C
#33198
1$!
#33611
1&!
#40000
0#
#40679
0A
#40817
0B
#50000
1#
#50514
1A
#50668
1B
#52404
1I!
#53033
0C
#53110
1D
#53145
0$!
#53168
0F
#53547
0E
#53593
0&!
#53623
1G
#54306
0d
#54536
1H
#60000
0#
#60679
0A
#60817
0B
#70000
1#
#70514
1A
#70668
1B
#72402
1G!
0H!
#72404
0I!
#73064
0D
#73101
1C
#73326
1F
#80000
0#
#80679
0A
#80817
0B
#90000
1#
#90514
1A
#90668
1B
#92404
1I!
#93033
0C
#93110
1D
#93565
1E
#94291
1d
#100000
0#
#100679
0A
#100817
0B
#110000
1#
#110514
1A
#110668
1B
#112402
1H!
#112404
0I!
#113064
0D
#113101
1C
#120000
0#
#120679
0A
#120817
0B
#130000
1#
#130514
1A
#130668
1B
#132404
1I!
#133033
0C
#133110
1D
#133168
0F
#133226
1I
#133547
0E
#133605
0G
#133681
1J
#134238
1K
#134306
0d
#134558
0H
#140000
0#
#140679
0A
#140817
0B
#150000
1#
#150514
1A
#150668
1B
#152402
0G!
1F!
0H!
#152404
0I!
#153064
0D
#153101
1C
#153168
0L
#153198
1$!
#153221
0J
#153326
1F
#153459
0I
#153517
1L
#153611
1&!
#153795
0K
#153914
1J
#154471
1K
#160000
0#
#160679
0A
#160817
0B
#170000
1#
#170514
1A
#170668
1B
#172404
1I!
#173033
0C
#173110
1D
#173145
0$!
#173565
1E
#173593
0&!
#174291
1d
#180000
0#
#180679
0A
#180817
0B
#190000
1#
#190514
1A
#190668
1B
#192402
1H!
#192404
0I!
#193064
0D
#193101
1C
#193198
1$!
#193611
1&!
#200000
0#
#200679
0A
#200817
0B
#210000
1#
#210514
1A
#210668
1B
#212404
1I!
#213033
0C
#213110
1D
#213145
0$!
#213168
0F
#213547
0E
#213593
0&!
#213623
1G
#214306
0d
#214536
1H
#220000
0#
#220679
0A
#220817
0B
#230000
1#
#230514
1A
#230668
1B
#232402
1G!
0H!
#232404
0I!
#233064
0D
#233101
1C
#233326
1F
#240000
0#
#240679
0A
#240817
0B
#250000
1#
#250514
1A
#250668
1B
#252404
1I!
#253033
0C
#253110
1D
#253565
1E
#254291
1d
#260000
0#
#260679
0A
#260817
0B
#270000
1#
#270514
1A
#270668
1B
#272402
1H!
#272404
0I!
#273064
0D
#273101
1C
#280000
0#
#280679
0A
#280817
0B
#290000
1#
#290514
1A
#290668
1B
#292404
1I!
#293033
0C
#293110
1D
#293168
0F
#293226
1I
#293284
0L
#293547
0E
#293605
0G
#293663
0J
#293739
1M
#294237
0K
#294306
0d
#294428
1N
#294558
0H
#300000
0#
#300679
0A
#300817
0B
#310000
1#
#310514
1A
#310668
1B
#312402
0G!
0F!
1E!
0H!
#312404
0I!
#313064
0D
#313101
1C
#313198
1$!
#313212
0M
#313276
1J
#313289
1O
#313326
1F
#313356
1L
#313414
0O
#313459
0I
#313611
1&!
#313811
1M
#313833
1K
#313896
0J
#313946
0N
#314470
0K
#314500
1N
#320000
0#
#320679
0A
#320817
0B
#330000
1#
#330514
1A
#330668
1B
#332404
1I!
#333033
0C
#333110
1D
#333145
0$!
#333565
1E
#333593
0&!
#334291
1d
#340000
0#
#340679
0A
#340817
0B
#350000
1#
#350514
1A
#350668
1B
#352402
1H!
#352404
0I!
#353064
0D
#353101
1C
#353198
1$!
#353611
1&!
#360000
0#
#360679
0A
#360817
0B
#370000
1#
#370514
1A
#370668
1B
#372404
1I!
#373033
0C
#373110
1D
#373145
0$!
#373168
0F
#373547
0E
#373593
0&!
#373623
1G
#374306
0d
#374536
1H
#380000
0#
#380679
0A
#380817
0B
#390000
1#
#390514
1A
#390668
1B
#392402
1G!
0H!
#392404
0I!
#393064
0D
#393101
1C
#393326
1F
#400000
0#
#400679
0A
#400817
0B
#410000
1#
#410514
1A
#410668
1B
#412404
1I!
#413033
0C
#413110
1D
#413565
1E
#414291
1d
#420000
0#
#420679
0A
#420817
0B
#430000
1#
#430514
1A
#430668
1B
#432402
1H!
#432404
0I!
#433064
0D
#433101
1C
#440000
0#
#440679
0A
#440817
0B
#450000
1#
#450514
1A
#450668
1B
#452404
1I!
#453033
0C
#453110
1D
#453168
0F
#453226
1I
#453547
0E
#453605
0G
#453681
1J
#454238
1K
#454306
0d
#454558
0H
#460000
0#
#460679
0A
#460817
0B
#470000
1#
#470514
1A
#470668
1B
#472402
0G!
1F!
0H!
#472404
0I!
#473064
0D
#473101
1C
#473168
0L
#473198
1$!
#473221
0J
#473226
1O
#473326
1F
#473459
0I
#473517
1L
#473575
0O
#473611
1&!
#473795
0K
#473914
1J
#474471
1K
#480000
0#
#480679
0A
#480817
0B
#490000
1#
#490514
1A
#490668
1B
#492404
1I!
#493033
0C
#493110
1D
#493145
0$!
#493565
1E
#493593
0&!
#494291
1d
#500000
0#
#500679
0A
#500817
0B
#510000
1#
#510514
1A
#510668
1B
#512402
1H!
#512404
0I!
#513064
0D
#513101
1C
#513198
1$!
#513611
1&!
#520000
0#
#520679
0A
#520817
0B
#530000
1#
#530514
1A
#530668
1B
#532404
1I!
#533033
0C
#533110
1D
#533145
0$!
#533168
0F
#533547
0E
#533593
0&!
#533623
1G
#534306
0d
#534536
1H
#540000
0#
#540679
0A
#540817
0B
#550000
1#
#550514
1A
#550668
1B
#552402
1G!
0H!
#552404
0I!
#553064
0D
#553101
1C
#553326
1F
#560000
0#
#560679
0A
#560817
0B
#570000
1#
#570514
1A
#570668
1B
#572404
1I!
#573033
0C
#573110
1D
#573565
1E
#574291
1d
#580000
0#
#580679
0A
#580817
0B
#590000
1#
#590514
1A
#590668
1B
#592402
1H!
#592404
0I!
#593064
0D
#593101
1C
#600000
0#
#600679
0A
#600817
0B
#610000
1#
#610514
1A
#610668
1B
#612404
1I!
#613033
0C
#613110
1D
#613168
0F
#613226
1I
#613284
0L
#613342
1O
#613547
0E
#613605
0G
#613663
0J
#613721
0M
#613797
1P
#614237
0K
#614306
0d
#614455
0N
#614524
1Q
#614558
0H
#620000
0#
#620679
0A
#620817
0B
#630000
1#
#630514
1A
#630668
1B
#632402
0G!
0F!
0E!
1D!
0H!
#632404
0I!
#633064
0D
#633101
1C
#633124
0R
#633177
0P
#633198
1$!
#633226
0O
#633263
1M
#633276
1J
#633284
1R
#633326
1F
#633356
1L
#633459
0I
#633611
1&!
#633681
1P
#633793
0M
#633833
1K
#633896
0J
#633941
0Q
#633952
1N
#634408
1Q
#634470
0K
#634527
0N
#640000
0#
#640679
0A
#640817
0B
#650000
1#
#650514
1A
#650668
1B
#652404
1I!
#653033
0C
#653110
1D
#653145
0$!
#653565
1E
#653593
0&!
#654291
1d
#660000
0#
#660679
0A
#660817
0B
#670000
1#
#670514
1A
#670668
1B
#672402
1H!
#672404
0I!
#673064
0D
#673101
1C
#673198
1$!
#673611
1&!
#680000
0#
#680679
0A
#680817
0B
#690000
1#
#690514
1A
#690668
1B
#692404
1I!
#693033
0C
#693110
1D
#693145
0$!
#693168
0F
#693547
0E
#693593
0&!
#693623
1G
#694306
0d
#694536
1H
#700000
0#
#700679
0A
#700817
0B
#710000
1#
#710514
1A
#710668
1B
#712402
1G!
0H!
#712404
0I!
#713064
0D
#713101
1C
#713326
1F
#720000
0#
#720679
0A
#720817
0B
#730000
1#
#730514
1A
#730668
1B
#732404
1I!
#733033
0C
#733110
1D
#733565
1E
#734291
1d
#740000
0#
#740679
0A
#740817
0B
#750000
1#
#750514
1A
#750668
1B
#752402
1H!
#752404
0I!
#753064
0D
#753101
1C
#760000
0#
#760679
0A
#760817
0B
#770000
1#
#770514
1A
#770668
1B
#772404
1I!
#773033
0C
#773110
1D
#773168
0F
#773226
1I
#773547
0E
#773605
0G
#773681
1J
#774238
1K
#774306
0d
#774558
0H
#780000
0#
#780679
0A
#780817
0B
#790000
1#
#790514
1A
#790668
1B
#792402
0G!
1F!
0H!
#792404
0I!
#793064
0D
#793101
1C
#793168
0L
#793198
1$!
#793221
0J
#793326
1F
#793459
0I
#793517
1L
#793611
1&!
#793795
0K
#793914
1J
#794471
1K
#800000
0#
#800679
0A
#800817
0B
#810000
1#
#810514
1A
#810668
1B
#812404
1I!
#813033
0C
#813110
1D
#813145
0$!
#813565
1E
#813593
0&!
#814291
1d
#820000
0#
#820679
0A
#820817
0B
#830000
1#
#830514
1A
#830668
1B
#832402
1H!
#832404
0I!
#833064
0D
#833101
1C
#833198
1$!
#833611
1&!
#840000
0#
#840679
0A
#840817
0B
#850000
1#
#850514
1A
#850668
1B
#852404
1I!
#853033
0C
#853110
1D
#853145
0$!
#853168
0F
#853547
0E
#853593
0&!
#853623
1G
#854306
0d
#854536
1H
#860000
0#
#860679
0A
#860817
0B
#870000
1#
#870514
1A
#870668
1B
#872402
1G!
0H!
#872404
0I!
#873064
0D
#873101
1C
#873326
1F
#880000
0#
#880679
0A
#880817
0B
#890000
1#
#890514
1A
#890668
1B
#892404
1I!
#893033
0C
#893110
1D
#893565
1E
#894291
1d
#900000
0#
#900679
0A
#900817
0B
#910000
1#
#910514
1A
#910668
1B
#912402
1H!
#912404
0I!
#913064
0D
#913101
1C
#920000
0#
#920679
0A
#920817
0B
#930000
1#
#930514
1A
#930668
1B
#932404
1I!
#933033
0C
#933110
1D
#933168
0F
#933226
1I
#933284
0L
#933547
0E
#933605
0G
#933663
0J
#933739
1M
#934237
0K
#934306
0d
#934428
1N
#934558
0H
#940000
0#
#940679
0A
#940817
0B
#950000
1#
#950514
1A
#950668
1B
#952402
0G!
0F!
1E!
0H!
#952404
0I!
#953064
0D
#953101
1C
#953127
1e
#953198
1$!
#953212
0M
#953276
1J
#953289
1O
#953326
1F
#953347
0R
#953356
1L
#953414
0O
#953459
0I
#953472
1R
#953611
1&!
#953811
1M
#953833
1K
#953896
0J
#953946
0N
#954470
0K
#954500
1N
#960000
0#
#960679
0A
#960817
0B
#970000
1#
#970514
1A
#970668
1B
#972404
1I!
#973033
0C
#973110
1D
#973145
0$!
#973565
1E
#973593
0&!
#974291
1d
#980000
0#
#980679
0A
#980817
0B
#990000
1#
#990514
1A
#990668
1B
#992402
1H!
#992404
0I!
#992980
1f
#993064
0D
#993101
1C
#993198
1$!
#993611
1&!
#994228
1'!
#994419
0Q
#994420
0d
#994553
0N
#1000000
0#
#1000679
0A
#1000817
0B
#1010000
1#
#1010514
1A
#1010668
1B
#1012402
0E!
0D!
0H!
1(!
#1012404
1I!
#1012970
0e
#1013033
0C
#1013067
0f
#1013110
1D
#1013145
0$!
#1013257
0P
#1013277
0M
#1013593
0&!
#1013624
0'!
#1013742
1d
#1013924
1U
#1016102
16
1.
#1020000
0#
#1020679
0A
#1020817
0B
#1030000
1#
#1030514
1A
#1030668
1B
#1032402
1H!
0(!
#1032404
0I!
#1033064
0D
#1033101
1C
#1033198
1$!
#1033611
1&!
#1033981
0U
#1036101
06
0.
#1040000
0#
#1040679
0A
#1040817
0B
#1050000
1#
#1050514
1A
#1050668
1B
#1052404
1I!
#1053033
0C
#1053110
1D
#1053145
0$!
#1053168
0F
#1053547
0E
#1053593
0&!
#1053623
1G
#1054306
0d
#1054536
1H
#1060000
0#
#1060679
0A
#1060817
0B
#1070000
1#
#1070514
1A
#1070668
1B
#1072402
1G!
0H!
#1072404
0I!
#1073064
0D
#1073101
1C
#1073326
1F
#1080000
0#
#1080679
0A
#1080817
0B
#1090000
1#
#1090514
1A
#1090668
1B
#1092404
1I!
#1093033
0C
#1093110
1D
#1093565
1E
#1094291
1d
#1100000
0#
#1100679
0A
#1100817
0B
#1110000
1#
#1110514
1A
#1110668
1B
#1112402
1H!
#1112404
0I!
#1113064
0D
#1113101
1C
#1120000
0#
#1120679
0A
#1120817
0B
#1130000
1#
#1130514
1A
#1130668
1B
#1132404
1I!
#1133033
0C
#1133110
1D
#1133168
0F
#1133226
1I
#1133547
0E
#1133605
0G
#1133681
1J
#1134238
1K
#1134306
0d
#1134558
0H
#1140000
0#
#1140679
0A
#1140817
0B
#1150000
1#
#1150514
1A
#1150668
1B
#1152402
0G!
1F!
0H!
#1152404
0I!
#1153064
0D
#1153101
1C
#1153168
0L
#1153198
1$!
#1153221
0J
#1153326
1F
#1153459
0I
#1153517
1L
#1153611
1&!
#1153795
0K
#1153914
1J
#1154471
1K
#1160000
0#
#1160679
0A
#1160817
0B
#1170000
1#
#1170514
1A
#1170668
1B
#1172404
1I!
#1173033
0C
#1173110
1D
#1173145
0$!
#1173565
1E
#1173593
0&!
#1174291
1d
#1180000
0#
#1180679
0A
#1180817
0B
#1190000
1#
#1190514
1A
#1190668
1B
#1192402
1H!
#1192404
0I!
#1193064
0D
#1193101
1C
#1193198
1$!
#1193611
1&!
#1200000
0#
#1200679
0A
#1200817
0B
#1210000
1#
#1210514
1A
#1210668
1B
#1212404
1I!
#1213033
0C
#1213110
1D
#1213145
0$!
#1213168
0F
#1213547
0E
#1213593
0&!
#1213623
1G
#1214306
0d
#1214536
1H
#1220000
0#
#1220679
0A
#1220817
0B
#1230000
1#
#1230514
1A
#1230668
1B
#1232402
1G!
0H!
#1232404
0I!
#1233064
0D
#1233101
1C
#1233326
1F
#1240000
0#
#1240679
0A
#1240817
0B
#1250000
1#
#1250514
1A
#1250668
1B
#1252404
1I!
#1253033
0C
#1253110
1D
#1253565
1E
#1254291
1d
#1260000
0#
#1260679
0A
#1260817
0B
#1270000
1#
#1270514
1A
#1270668
1B
#1272402
1H!
#1272404
0I!
#1273064
0D
#1273101
1C
#1280000
0#
#1280679
0A
#1280817
0B
#1290000
1#
#1290514
1A
#1290668
1B
#1292404
1I!
#1293033
0C
#1293110
1D
#1293168
0F
#1293226
1I
#1293284
0L
#1293547
0E
#1293605
0G
#1293663
0J
#1293739
1M
#1294237
0K
#1294306
0d
#1294428
1N
#1294558
0H
#1300000
0#
#1300679
0A
#1300817
0B
#1310000
1#
#1310514
1A
#1310668
1B
#1312402
0G!
0F!
1E!
0H!
#1312404
0I!
#1313064
0D
#1313101
1C
#1313198
1$!
#1313212
0M
#1313276
1J
#1313289
1O
#1313326
1F
#1313356
1L
#1313414
0O
#1313459
0I
#1313611
1&!
#1313811
1M
#1313833
1K
#1313896
0J
#1313946
0N
#1314470
0K
#1314500
1N
#1320000
0#
#1320679
0A
#1320817
0B
#1330000
1#
#1330514
1A
#1330668
1B
#1332404
1I!
#1333033
0C
#1333110
1D
#1333145
0$!
#1333565
1E
#1333593
0&!
#1334291
1d
#1340000
0#
#1340679
0A
#1340817
0B
#1350000
1#
#1350514
1A
#1350668
1B
#1352402
1H!
#1352404
0I!
#1353064
0D
#1353101
1C
#1353198
1$!
#1353611
1&!
#1360000
0#
#1360679
0A
#1360817
0B
#1370000
1#
#1370514
1A
#1370668
1B
#1372404
1I!
#1373033
0C
#1373110
1D
#1373145
0$!
#1373168
0F
#1373547
0E
#1373593
0&!
#1373623
1G
#1374306
0d
#1374536
1H
#1380000
0#
#1380679
0A
#1380817
0B
#1390000
1#
#1390514
1A
#1390668
1B
#1392402
1G!
0H!
#1392404
0I!
#1393064
0D
#1393101
1C
#1393326
1F
#1400000
0#
#1400679
0A
#1400817
0B
#1410000
1#
#1410514
1A
#1410668
1B
#1412404
1I!
#1413033
0C
#1413110
1D
#1413565
1E
#1414291
1d
#1420000
0#
#1420679
0A
#1420817
0B
#1430000
1#
#1430514
1A
#1430668
1B
#1432402
1H!
#1432404
0I!
#1433064
0D
#1433101
1C
#1440000
0#
#1440679
0A
#1440817
0B
#1450000
1#
#1450514
1A
#1450668
1B
#1452404
1I!
#1453033
0C
#1453110
1D
#1453168
0F
#1453226
1I
#1453547
0E
#1453605
0G
#1453681
1J
#1454238
1K
#1454306
0d
#1454558
0H
#1460000
0#
#1460679
0A
#1460817
0B
#1470000
1#
#1470514
1A
#1470668
1B
#1472402
0G!
1F!
0H!
#1472404
0I!
#1473064
0D
#1473101
1C
#1473168
0L
#1473198
1$!
#1473221
0J
#1473226
1O
#1473326
1F
#1473459
0I
#1473517
1L
#1473575
0O
#1473611
1&!
#1473795
0K
#1473914
1J
#1474471
1K
#1480000
0#
#1480679
0A
#1480817
0B
#1490000
1#
#1490514
1A
#1490668
1B
#1492404
1I!
#1493033
0C
#1493110
1D
#1493145
0$!
#1493565
1E
#1493593
0&!
#1494291
1d
#1500000
0#
#1500679
0A
#1500817
0B
#1510000
1#
#1510514
1A
#1510668
1B
#1512402
1H!
#1512404
0I!
#1513064
0D
#1513101
1C
#1513198
1$!
#1513611
1&!
#1520000
0#
#1520679
0A
#1520817
0B
#1530000
1#
#1530514
1A
#1530668
1B
#1532404
1I!
#1533033
0C
#1533110
1D
#1533145
0$!
#1533168
0F
#1533547
0E
#1533593
0&!
#1533623
1G
#1534306
0d
#1534536
1H
#1540000
0#
#1540679
0A
#1540817
0B
#1550000
1#
#1550514
1A
#1550668
1B
#1552402
1G!
0H!
#1552404
0I!
#1553064
0D
#1553101
1C
#1553326
1F
#1560000
0#
#1560679
0A
#1560817
0B
#1570000
1#
#1570514
1A
#1570668
1B
#1572404
1I!
#1573033
0C
#1573110
1D
#1573565
1E
#1574291
1d
#1580000
0#
#1580679
0A
#1580817
0B
#1590000
1#
#1590514
1A
#1590668
1B
#1592402
1H!
#1592404
0I!
#1593064
0D
#1593101
1C
#1600000
0#
#1600679
0A
#1600817
0B
#1610000
1#
#1610514
1A
#1610668
1B
#1612404
1I!
#1613033
0C
#1613110
1D
#1613168
0F
#1613226
1I
#1613284
0L
#1613342
1O
#1613547
0E
#1613605
0G
#1613663
0J
#1613721
0M
#1613797
1P
#1614237
0K
#1614306
0d
#1614455
0N
#1614524
1Q
#1614558
0H
#1620000
0#
#1620679
0A
#1620817
0B
#1630000
1#
#1630514
1A
#1630668
1B
#1632402
0G!
0F!
0E!
1D!
0H!
#1632404
0I!
#1633064
0D
#1633101
1C
#1633124
0R
#1633177
0P
#1633198
1$!
#1633226
0O
#1633263
1M
#1633276
1J
#1633284
1R
#1633326
1F
#1633356
1L
#1633459
0I
#1633611
1&!
#1633681
1P
#1633793
0M
#1633833
1K
#1633896
0J
#1633941
0Q
#1633952
1N
#1634408
1Q
#1634470
0K
#1634527
0N
#1640000
0#
#1640679
0A
#1640817
0B
#1650000
1#
#1650514
1A
#1650668
1B
#1652404
1I!
#1653033
0C
#1653110
1D
#1653145
0$!
#1653565
1E
#1653593
0&!
#1654291
1d
#1660000
0#
#1660679
0A
#1660817
0B
#1670000
1#
#1670514
1A
#1670668
1B
#1672402
1H!
#1672404
0I!
#1673064
0D
#1673101
1C
#1673198
1$!
#1673611
1&!
#1680000
0#
#1680679
0A
#1680817
0B
#1690000
1#
#1690514
1A
#1690668
1B
#1692404
1I!
#1693033
0C
#1693110
1D
#1693145
0$!
#1693168
0F
#1693547
0E
#1693593
0&!
#1693623
1G
#1694306
0d
#1694536
1H
#1700000
0#
#1700679
0A
#1700817
0B
#1710000
1#
#1710514
1A
#1710668
1B
#1712402
1G!
0H!
#1712404
0I!
#1713064
0D
#1713101
1C
#1713326
1F
#1720000
0#
#1720679
0A
#1720817
0B
#1730000
1#
#1730514
1A
#1730668
1B
#1732404
1I!
#1733033
0C
#1733110
1D
#1733565
1E
#1734291
1d
#1740000
0#
#1740679
0A
#1740817
0B
#1750000
1#
#1750514
1A
#1750668
1B
#1752402
1H!
#1752404
0I!
#1753064
0D
#1753101
1C
#1760000
0#
#1760679
0A
#1760817
0B
#1770000
1#
#1770514
1A
#1770668
1B
#1772404
1I!
#1773033
0C
#1773110
1D
#1773168
0F
#1773226
1I
#1773547
0E
#1773605
0G
#1773681
1J
#1774238
1K
#1774306
0d
#1774558
0H
#1780000
0#
#1780679
0A
#1780817
0B
#1790000
1#
#1790514
1A
#1790668
1B
#1792402
0G!
1F!
0H!
#1792404
0I!
#1793064
0D
#1793101
1C
#1793168
0L
#1793198
1$!
#1793221
0J
#1793326
1F
#1793459
0I
#1793517
1L
#1793611
1&!
#1793795
0K
#1793914
1J
#1794471
1K
#1800000
0#
#1800679
0A
#1800817
0B
#1810000
1#
#1810514
1A
#1810668
1B
#1812404
1I!
#1813033
0C
#1813110
1D
#1813145
0$!
#1813565
1E
#1813593
0&!
#1814291
1d
#1820000
0#
#1820679
0A
#1820817
0B
#1830000
1#
#1830514
1A
#1830668
1B
#1832402
1H!
#1832404
0I!
#1833064
0D
#1833101
1C
#1833198
1$!
#1833611
1&!
#1840000
0#
#1840679
0A
#1840817
0B
#1850000
1#
#1850514
1A
#1850668
1B
#1852404
1I!
#1853033
0C
#1853110
1D
#1853145
0$!
#1853168
0F
#1853547
0E
#1853593
0&!
#1853623
1G
#1854306
0d
#1854536
1H
#1860000
0#
#1860679
0A
#1860817
0B
#1870000
1#
#1870514
1A
#1870668
1B
#1872402
1G!
0H!
#1872404
0I!
