Serial to SPI/simulation/qsim/SerialtoSPI.msim.vcd
$comment
	File created using the following command:
		vcd file SerialtoSPI.msim.vcd -direction
$end
$date
	Thu Mar 24 17:21:38 2016
$end
$version
	ModelSim Version 10.4b
$end
$timescale
	1ps
$end

$scope module SerialtoSPI_vlg_vec_tst $end
$var reg 1 ! CLK $end
$var reg 1 " RTS $end
$var reg 1 # TX_D $end
$var wire 1 $ CTS $end
$var wire 1 % LED [7] $end
$var wire 1 & LED [6] $end
$var wire 1 ' LED [5] $end
$var wire 1 ( LED [4] $end
$var wire 1 ) LED [3] $end
$var wire 1 * LED [2] $end
$var wire 1 + LED [1] $end
$var wire 1 , LED [0] $end

$scope module i1 $end
$var wire 1 - gnd $end
$var wire 1 . vcc $end
$var wire 1 / unknown $end
$var tri1 1 0 devclrn $end
$var tri1 1 1 devpor $end
$var tri1 1 2 devoe $end
$var wire 1 3 CTS~output_o $end
$var wire 1 4 LED[7]~output_o $end
$var wire 1 5 LED[6]~output_o $end
$var wire 1 6 LED[5]~output_o $end
$var wire 1 7 LED[4]~output_o $end
$var wire 1 8 LED[3]~output_o $end
$var wire 1 9 LED[2]~output_o $end
$var wire 1 : LED[1]~output_o $end
$var wire 1 ; LED[0]~output_o $end
$var wire 1 < RTS~input_o $end
$var wire 1 = CLK~input_o $end
$var wire 1 > CLK~inputclkctrl_outclk $end
$var wire 1 ? inst|newClk|count[0]~16_combout $end
$var wire 1 @ inst|newClk|count[0]~17 $end
$var wire 1 A inst|newClk|count[1]~18_combout $end
$var wire 1 B inst|newClk|CLK~4_combout $end
$var wire 1 C inst|newClk|count[1]~19 $end
$var wire 1 D inst|newClk|count[2]~20_combout $end
$var wire 1 E inst|newClk|count[2]~21 $end
$var wire 1 F inst|newClk|count[3]~22_combout $end
$var wire 1 G inst|newClk|count[3]~23 $end
$var wire 1 H inst|newClk|count[4]~24_combout $end
$var wire 1 I inst|newClk|count[4]~25 $end
$var wire 1 J inst|newClk|count[5]~26_combout $end
$var wire 1 K inst|newClk|count[5]~27 $end
$var wire 1 L inst|newClk|count[6]~28_combout $end
$var wire 1 M inst|newClk|count[6]~29 $end
$var wire 1 N inst|newClk|count[7]~30_combout $end
$var wire 1 O inst|newClk|count[7]~31 $end
$var wire 1 P inst|newClk|count[8]~32_combout $end
$var wire 1 Q inst|newClk|count[8]~33 $end
$var wire 1 R inst|newClk|count[9]~34_combout $end
$var wire 1 S inst|newClk|count[9]~35 $end
$var wire 1 T inst|newClk|count[10]~36_combout $end
$var wire 1 U inst|newClk|count[10]~37 $end
$var wire 1 V inst|newClk|count[11]~38_combout $end
$var wire 1 W inst|newClk|count[11]~39 $end
$var wire 1 X inst|newClk|count[12]~40_combout $end
$var wire 1 Y inst|newClk|count[12]~41 $end
$var wire 1 Z inst|newClk|count[13]~42_combout $end
$var wire 1 [ inst|newClk|count[13]~43 $end
$var wire 1 \ inst|newClk|count[14]~44_combout $end
$var wire 1 ] inst|newClk|count[14]~45 $end
$var wire 1 ^ inst|newClk|count[15]~46_combout $end
$var wire 1 _ inst|newClk|CLK~0_combout $end
$var wire 1 ` inst|newClk|CLK~1_combout $end
$var wire 1 a inst|newClk|CLK~2_combout $end
$var wire 1 b inst|newClk|CLK~3_combout $end
$var wire 1 c TX_D~input_o $end
$var wire 1 d inst|count[0]~3_combout $end
$var wire 1 e inst|count[1]~0_combout $end
$var wire 1 f inst|count[1]~1_combout $end
$var wire 1 g inst|count[2]~4_combout $end
$var wire 1 h inst|count[3]~2_combout $end
$var wire 1 i inst|LOAD~0_combout $end
$var wire 1 j inst|change~0_combout $end
$var wire 1 k inst|change~q $end
$var wire 1 l inst|newClk|CLK~5_combout $end
$var wire 1 m inst|newClk|CLK~feeder_combout $end
$var wire 1 n inst|newClk|CLK~q $end
$var wire 1 o inst|newClk|CLK~clkctrl_outclk $end
$var wire 1 p inst|Decoder0~8_combout $end
$var wire 1 q inst|data[1]~0_combout $end
$var wire 1 r inst|data[1]~1_combout $end
$var wire 1 s inst|data[9]~10_combout $end
$var wire 1 t inst|Decoder0~9_combout $end
$var wire 1 u inst|data~11_combout $end
$var wire 1 v inst|LOAD~1_combout $end
$var wire 1 w inst|LOAD~2_combout $end
$var wire 1 x inst|LOAD~feeder_combout $end
$var wire 1 y inst|LOAD~q $end
$var wire 1 z inst|LOAD~clkctrl_outclk $end
$var wire 1 { inst1|full~feeder_combout $end
$var wire 1 | inst1|full~q $end
$var wire 1 } inst1|CTS~combout $end
$var wire 1 ~ inst|Decoder0~0_combout $end
$var wire 1 !! inst|data[8]~2_combout $end
$var wire 1 "! inst|data[8]~feeder_combout $end
$var wire 1 #! inst1|BYTEOUT[7]~feeder_combout $end
$var wire 1 $! inst|Decoder0~1_combout $end
$var wire 1 %! inst|data[7]~3_combout $end
$var wire 1 &! inst|data[7]~feeder_combout $end
$var wire 1 '! inst1|BYTEOUT[6]~feeder_combout $end
$var wire 1 (! inst|Decoder0~2_combout $end
$var wire 1 )! inst|data[6]~4_combout $end
$var wire 1 *! inst|data[6]~feeder_combout $end
$var wire 1 +! inst1|BYTEOUT[5]~feeder_combout $end
$var wire 1 ,! inst|Decoder0~3_combout $end
$var wire 1 -! inst|data[5]~5_combout $end
$var wire 1 .! inst|data[5]~feeder_combout $end
$var wire 1 /! inst1|BYTEOUT[4]~feeder_combout $end
$var wire 1 0! inst|Decoder0~4_combout $end
$var wire 1 1! inst|data[4]~6_combout $end
$var wire 1 2! inst|data[4]~feeder_combout $end
$var wire 1 3! inst1|BYTEOUT[3]~feeder_combout $end
$var wire 1 4! inst|Decoder0~5_combout $end
$var wire 1 5! inst|data[3]~7_combout $end
$var wire 1 6! inst|data[3]~feeder_combout $end
$var wire 1 7! inst1|BYTEOUT[2]~feeder_combout $end
$var wire 1 8! inst|Decoder0~6_combout $end
$var wire 1 9! inst|data[2]~8_combout $end
$var wire 1 :! inst|data[2]~feeder_combout $end
$var wire 1 ;! inst1|BYTEOUT[1]~feeder_combout $end
$var wire 1 <! inst|Decoder0~7_combout $end
$var wire 1 =! inst|data[1]~9_combout $end
$var wire 1 >! inst|data[1]~feeder_combout $end
$var wire 1 ?! inst1|BYTEOUT[0]~feeder_combout $end
$var wire 1 @! inst|newClk|count [15] $end
$var wire 1 A! inst|newClk|count [14] $end
$var wire 1 B! inst|newClk|count [13] $end
$var wire 1 C! inst|newClk|count [12] $end
$var wire 1 D! inst|newClk|count [11] $end
$var wire 1 E! inst|newClk|count [10] $end
$var wire 1 F! inst|newClk|count [9] $end
$var wire 1 G! inst|newClk|count [8] $end
$var wire 1 H! inst|newClk|count [7] $end
$var wire 1 I! inst|newClk|count [6] $end
$var wire 1 J! inst|newClk|count [5] $end
$var wire 1 K! inst|newClk|count [4] $end
$var wire 1 L! inst|newClk|count [3] $end
$var wire 1 M! inst|newClk|count [2] $end
$var wire 1 N! inst|newClk|count [1] $end
$var wire 1 O! inst|newClk|count [0] $end
$var wire 1 P! inst1|BYTEOUT [7] $end
$var wire 1 Q! inst1|BYTEOUT [6] $end
$var wire 1 R! inst1|BYTEOUT [5] $end
$var wire 1 S! inst1|BYTEOUT [4] $end
$var wire 1 T! inst1|BYTEOUT [3] $end
$var wire 1 U! inst1|BYTEOUT [2] $end
$var wire 1 V! inst1|BYTEOUT [1] $end
$var wire 1 W! inst1|BYTEOUT [0] $end
$var wire 1 X! inst|data [9] $end
$var wire 1 Y! inst|data [8] $end
$var wire 1 Z! inst|data [7] $end
$var wire 1 [! inst|data [6] $end
$var wire 1 \! inst|data [5] $end
$var wire 1 ]! inst|data [4] $end
$var wire 1 ^! inst|data [3] $end
$var wire 1 _! inst|data [2] $end
$var wire 1 `! inst|data [1] $end
$var wire 1 a! inst|data [0] $end
$var wire 1 b! inst|count [3] $end
$var wire 1 c! inst|count [2] $end
$var wire 1 d! inst|count [1] $end
$var wire 1 e! inst|count [0] $end
$upscope $end
$upscope $end
$enddefinitions $end
#0
$dumpvars
0!
1"
1#
1$
0,
0+
0*
0)
0(
0'
0&
0%
0-
1.
x/
10
11
12
13
04
05
06
07
08
09
0:
0;
1<
0=
0>
1?
0@
0A
1B
1C
0D
0E
0F
1G
0H
0I
0J
1K
0L
0M
0N
1O
0P
0Q
0R
1S
0T
0U
0V
1W
0X
0Y
0Z
1[
0\
0]
0^
1_
1`
1a
1b
1c
0d
0e
0f
0g
0h
0i
0j
0k
0l
0m
0n
0o
0p
0q
0r
0s
1t
0u
1v
0w
0x
0y
0z
1{
0|
1}
0~
0!!
0"!
0#!
0$!
0%!
0&!
0'!
0(!
0)!
0*!
0+!
0,!
0-!
0.!
0/!
00!
01!
02!
03!
04!
05!
06!
07!
08!
09!
0:!
0;!
0<!
0=!
0>!
0?!
0O!
0N!
0M!
0L!
0K!
0J!
0I!
0H!
0G!
0F!
0E!
0D!
0C!
0B!
0A!
0@!
0W!
0V!
0U!
0T!
0S!
0R!
0Q!
0P!
0a!
0`!
0_!
0^!
0]!
0\!
0[!
0Z!
0Y!
0X!
0e!
0d!
0c!
0b!
$end
#5000
1!
1=
1>
1O!
0B
1@
0?
1l
1A
1m
#10000
0!
0=
0>
#15000
1!
1=
1>
1n
0O!
1o
1B
0@
1?
0l
0A
0m
#20000
0!
0=
0>
#25000
1!
1=
1>
0n
1O!
0o
0B
1@
0?
1l
1A
1m
#30000
0!
0=
0>
#35000
1!
1=
1>
1n
0O!
1o
1B
0@
1?
0l
0A
0m
#40000
0#
0!
0c
0=
0>
0v
1j
1d
#45000
1!
1=
1>
0n
1O!
0o
0B
1@
0?
1l
1A
1m
#50000
0!
0=
0>
#55000
1!
1=
1>
1n
0O!
1o
1B
0@
1?
0l
0A
0m
1k
1e!
1r
1e
1<!
0t
1q
0d
1f
#60000
0!
0=
0>
#65000
1!
1=
1>
0n
1O!
0o
0B
1@
0?
1A
#70000
0!
0=
0>
#75000
1!
1=
1>
1N!
0O!
0C
0@
0A
1?
1C
1D
1A
0D
#80000
1#
0!
1c
0=
0>
1=!
1>!
#85000
1!
1=
1>
1O!
1@
0?
0C
0A
1D
#90000
0!
0=
0>
#95000
1!
1=
1>
1M!
0N!
0O!
0b
1E
1B
1C
0@
0D
1A
1?
1l
0E
1F
1D
0A
1m
0F
#100000
0!
0=
0>
#105000
1!
1=
1>
1n
0M!
1o
1b
0D
0l
0m
1`!
1d!
0e!
0<!
18!
0q
0e
1?!
1g
0f
1d
19!
0g
1f
1:!
#110000
0!
0=
0>
#115000
1!
1=
1>
0n
1O!
0o
0B
1@
0?
1A
#120000
0#
0!
0c
0=
0>
09!
0:!
#125000
1!
1=
1>
1N!
0O!
0C
0@
0A
1?
1C
1D
1A
0D
#130000
0!
0=
0>
#135000
1!
1=
1>
1O!
1@
0?
0C
0A
1D
#140000
0!
0=
0>
#145000
1!
1=
1>
1M!
0N!
0O!
0b
1E
1B
1C
0@
0D
1A
1?
1l
0E
1F
1D
0A
1m
0F
#150000
0!
0=
0>
#155000
1!
1=
1>
1n
0M!
1o
1b
0D
0l
0m
1e!
08!
14!
1q
1e
0d
1g
0f
#160000
1#
0!
1c
0=
0>
15!
16!
#165000
1!
1=
1>
0n
1O!
0o
0B
1@
0?
1A
#170000
0!
0=
0>
#175000
1!
1=
1>
1N!
0O!
0C
0@
0A
1?
1C
1D
1A
0D
#180000
0!
0=
0>
#185000
1!
1=
1>
1O!
1@
0?
0C
0A
1D
#190000
0!
0=
0>
#195000
1!
1=
1>
1M!
0N!
0O!
0b
1E
1B
1C
0@
0D
1A
1?
1l
0E
1F
1D
0A
1m
0F
#200000
0#
0!
0c
0=
0>
05!
06!
#205000
1!
1=
1>
1n
0M!
1o
1b
0D
0l
0m
1c!
0d!
0e!
04!
10!
0e
1f
1d
0f
#210000
0!
0=
0>
#215000
1!
1=
1>
0n
1O!
0o
0B
1@
0?
1A
#220000
0!
0=
0>
#225000
1!
1=
1>
1N!
0O!
0C
0@
0A
1?
1C
1D
1A
0D
#230000
0!
0=
0>
#235000
1!
1=
1>
1O!
1@
0?
0C
0A
1D
#240000
1#
0!
1c
0=
0>
11!
12!
#245000
1!
1=
1>
1M!
0N!
0O!
0b
1E
1B
1C
0@
0D
1A
1?
1l
0E
1F
1D
0A
1m
0F
#250000
0!
0=
0>
#255000
1!
1=
1>
1n
0M!
1o
1b
0D
0l
0m
1]!
1e!
00!
1,!
1e
13!
0d
1-!
1f
1.!
#260000
0!
0=
0>
#265000
1!
1=
1>
0n
1O!
0o
0B
1@
0?
1A
#270000
0!
0=
0>
#275000
1!
1=
1>
1N!
0O!
0C
0@
0A
1?
1C
1D
1A
0D
#280000
0#
0!
0c
0=
0>
0-!
0.!
#285000
1!
1=
1>
1O!
1@
0?
0C
0A
1D
#290000
0!
0=
0>
#295000
1!
1=
1>
1M!
0N!
0O!
0b
1E
1B
1C
0@
0D
1A
1?
1l
0E
1F
1D
0A
1m
0F
#300000
0!
0=
0>
#305000
1!
1=
1>
1n
0M!
1o
1b
0D
0l
0m
1d!
0e!
0,!
1(!
0e
1h
0g
0f
1d
0h
1g
1f
#310000
0!
0=
0>
#315000
1!
1=
1>
0n
1O!
0o
0B
1@
0?
1A
#320000
1#
0!
1c
0=
0>
1)!
1*!
#325000
1!
1=
1>
1N!
0O!
0C
0@
0A
1?
1C
1D
1A
0D
#330000
0!
0=
0>
#335000
1!
1=
1>
1O!
1@
0?
0C
0A
1D
#340000
0!
0=
0>
#345000
1!
1=
1>
1M!
0N!
0O!
0b
1E
1B
1C
0@
0D
1A
1?
1l
0E
1F
1D
0A
1m
0F
#350000
0!
0=
0>
#355000
1!
1=
1>
1n
0M!
1o
1b
0D
0l
0m
1[!
1e!
0(!
1$!
1e
1+!
0d
1%!
1h
0g
0f
1&!
#360000
0#
0!
0c
0=
0>
0%!
0&!
#365000
1!
1=
1>
0n
1O!
0o
0B
1@
0?
1A
#370000
0!
0=
0>
#375000
1!
1=
1>
1N!
0O!
0C
0@
0A
1?
1C
1D
1A
0D
#380000
0!
0=
0>
#385000
1!
1=
1>
1O!
1@
0?
0C
0A
1D
#390000
0!
0=
0>
#395000
1!
1=
1>
1M!
0N!
0O!
0b
1E
1B
1C
0@
0D
1A
1?
1l
0E
1F
1D
0A
1m
0F
#400000
1#
0!
1c
0=
0>
1%!
1&!
#405000
1!
1=
1>
1n
0M!
1o
1b
0D
0l
0m
1Z!
1b!
0c!
0d!
0e!
0$!
1~
0q
0e
1'!
1f
1d
1!!
0f
1"!
#410000
0!
0=
0>
#415000
1!
1=
1>
0n
1O!
0o
0B
1@
0?
1A
#420000
0!
0=
0>
#425000
1!
1=
1>
1N!
0O!
0C
0@
0A
1?
1C
1D
1A
0D
#430000
0!
0=
0>
#435000
1!
1=
1>
1O!
1@
0?
0C
0A
1D
#440000
0!
0=
0>
#445000
1!
1=
1>
1M!
0N!
0O!
0b
1E
1B
1C
0@
0D
1A
1?
1l
0E
1F
1D
0A
1m
0F
#450000
0!
0=
0>
#455000
1!
1=
1>
1n
0M!
1o
1b
0D
0l
0m
1Y!
1e!
0~
1q
1p
1e
1#!
0d
1s
1f
#460000
0!
0=
0>
#465000
1!
1=
1>
0n
1O!
0o
0B
1@
0?
1A
#470000
0!
0=
0>
#475000
1!
1=
1>
1N!
0O!
0C
0@
0A
1?
1C
1D
1A
0D
#480000
0!
0=
0>
#485000
1!
1=
1>
1O!
1@
0?
0C
0A
1D
#490000
0!
0=
0>
#495000
1!
1=
1>
1M!
0N!
0O!
0b
1E
1B
1C
0@
0D
1A
1?
1l
0E
1F
1D
0A
1m
0F
#500000
0!
0=
0>
#505000
1!
1=
1>
1n
0M!
1o
1b
0D
0l
0m
1X!
1d!
0e!
1v
0p
1i
0q
0e
1g
0f
1d
1w
0r
0j
0d
0g
1f
1x
#510000
0!
0=
0>
#515000
1!
1=
1>
0n
1O!
0o
0B
1@
0?
1A
#520000
0!
0=
0>
#525000
1!
1=
1>
1N!
0O!
0C
0@
0A
1?
1C
1D
1A
0D
#530000
0!
0=
0>
#535000
1!
1=
1>
1O!
1@
0?
0C
0A
1D
#540000
0!
0=
0>
#545000
1!
1=
1>
1M!
0N!
0O!
0b
1E
1B
1C
0@
0D
1A
1?
1l
0E
1F
1D
0A
1m
0F
#550000
0!
0=
0>
#555000
1!
1=
1>
1n
0M!
1o
1b
0D
0l
0m
1y
0k
1z
1|
1W!
1T!
1R!
1Q!
1P!
14
15
16
18
1;
1,
1)
1'
1&
1%
0}
03
0$
#560000
0!
0=
0>
#565000
1!
1=
1>
0n
1O!
0o
0B
1@
0?
1l
1A
1m
#570000
0!
0=
0>
#575000
1!
1=
1>
1n
0O!
1o
1B
0@
1?
0l
0A
0m
#580000
0!
0=
0>
#585000
1!
1=
1>
0n
1O!
0o
0B
1@
0?
1l
1A
1m
#590000
0!
0=
0>
#595000
1!
1=
1>
1n
0O!
1o
1B
0@
1?
0l
0A
0m
#600000
0!
0=
0>
#605000
1!
1=
1>
0n
1O!
0o
0B
1@
0?
1l
1A
1m
#610000
0!
0=
0>
#615000
1!
1=
1>
1n
0O!
1o
1B
0@
1?
0l
0A
0m
#620000
0!
0=
0>
#625000
1!
1=
1>
0n
1O!
0o
0B
1@
0?
1l
1A
1m
#630000
0!
0=
0>
#635000
1!
1=
1>
1n
0O!
1o
1B
0@
1?
0l
0A
0m
#640000
0!
0=
0>
#645000
1!
1=
1>
0n
1O!
0o
0B
1@
0?
1l
1A
1m
#650000
0!
0=
0>
#655000
1!
1=
1>
1n
0O!
1o
1B
0@
1?
0l
0A
0m
#660000
0!
0=
0>
#665000
1!
1=
1>
0n
1O!
0o
0B
1@
0?
1l
1A
1m
#670000
0!
0=
0>
#675000
1!
1=
1>
1n
0O!
1o
1B
0@
1?
0l
0A
0m
#680000
0!
0=
0>
#685000
1!
1=
1>
0n
1O!
0o
0B
1@
0?
1l
1A
1m
#690000
0!
0=
0>
#695000
1!
1=
1>
1n
0O!
1o
1B
0@
1?
0l
0A
0m
#700000
0!
0=
0>
#705000
1!
1=
1>
0n
1O!
0o
0B
1@
0?
1l
1A
1m
#710000
0!
0=
0>
#715000
1!
1=
1>
1n
0O!
1o
1B
0@
1?
0l
0A
0m
#720000
0!
0=
0>
#725000
1!
1=
1>
0n
1O!
0o
0B
1@
0?
1l
1A
1m
#730000
0!
0=
0>
#735000
1!
1=
1>
1n
0O!
1o
1B
0@
1?
0l
0A
0m
#740000
0!
0=
0>
#745000
1!
1=
1>
0n
1O!
0o
0B
1@
0?
1l
1A
1m
#750000
0!
0=
0>
#755000
1!
1=
1>
1n
0O!
1o
1B
0@
1?
0l
0A
0m
#760000
0!
0=
0>
#765000
1!
1=
1>
0n
1O!
0o
0B
1@
0?
1l
1A
1m
#770000
0!
0=
0>
#775000
1!
1=
1>
1n
0O!
1o
1B
0@
1?
0l
0A
0m
#780000
0!
0=
0>
#785000
1!
1=
1>
0n
1O!
0o
0B
1@
0?
1l
1A
1m
#790000
0!
0=
0>
#795000
1!
1=
1>
1n
0O!
1o
1B
0@
1?
0l
0A
0m
#800000
0!
0=
0>
#805000
1!
1=
1>
0n
1O!
0o
0B
1@
0?
1l
1A
1m
#810000
0!
0=
0>
#815000
1!
1=
1>
1n
0O!
1o
1B
0@
1?
0l
0A
0m
#820000
0!
0=
0>
#825000
1!
1=
1>
0n
1O!
0o
0B
1@
0?
1l
1A
1m
#830000
0!
0=
0>
#835000
1!
1=
1>
1n
0O!
1o
1B
0@
1?
0l
0A
0m
#840000
0!
0=
0>
#845000
1!
1=
1>
0n
1O!
0o
0B
1@
0?
1l
1A
1m
#850000
0!
0=
0>
#855000
1!
1=
1>
1n
0O!
1o
1B
0@
1?
0l
0A
0m
#860000
0!
0=
0>
#865000
1!
1=
1>
0n
1O!
0o
0B
1@
0?
1l
1A
1m
#870000
0!
0=
0>
#875000
1!
1=
1>
1n
0O!
1o
1B
0@
1?
0l
0A
0m
#880000
0!
0=
0>
#885000
1!
1=
1>
0n
1O!
0o
0B
1@
0?
1l
1A
1m
#890000
0!
0=
0>
#895000
1!
1=
1>
1n
0O!
1o
1B
0@
1?
0l
0A
0m
#900000
0!
0=
0>
#905000
1!
1=
1>
0n
1O!
0o
0B
1@
0?
1l
1A
1m
#910000
0!
0=
0>
#915000
1!
1=
1>
1n
0O!
1o
1B
0@
1?
0l
0A
0m
#920000
0!
0=
0>
#925000
1!
1=
1>
0n
1O!
0o
0B
1@
0?
1l
1A
1m
#930000
0!
0=
0>
#935000
1!
1=
1>
1n
0O!
1o
1B
0@
1?
0l
0A
0m
#940000
0!
0=
0>
#945000
1!
1=
1>
0n
1O!
0o
0B
1@
0?
1l
1A
1m
#950000
0!
0=
0>
#955000
1!
1=
1>
1n
0O!
1o
1B
0@
1?
0l
0A
0m
#960000
0!
0=
0>
#965000
1!
1=
1>
0n
1O!
0o
0B
1@
0?
1l
1A
1m
#970000
0!
0=
0>
#975000
1!
1=
1>
1n
0O!
1o
1B
0@
1?
0l
0A
0m
#980000
0!
0=
0>
#985000
1!
1=
1>
0n
1O!
0o
0B
1@
0?
1l
1A
1m
#990000
0!
0=
0>
#995000
1!
1=
1>
1n
0O!
1o
1B
0@
1?
0l
0A
0m
