Serial to SPI/simulation/qsim/SerialtoSPI.msim.vcd
$comment
	File created using the following command:
		vcd file SerialtoSPI.msim.vcd -direction
$end
$date
	Wed Mar 23 20:24:39 2016
$end
$version
	ModelSim Version 10.4b
$end
$timescale
	1ps
$end

$scope module SerialtoSPI_vlg_vec_tst $end
$var reg 1 ! CLK $end
$var reg 1 " RTS $end
$var reg 1 # TX_D $end
$var wire 1 $ CTS $end
$var wire 1 % LED [7] $end
$var wire 1 & LED [6] $end
$var wire 1 ' LED [5] $end
$var wire 1 ( LED [4] $end
$var wire 1 ) LED [3] $end
$var wire 1 * LED [2] $end
$var wire 1 + LED [1] $end
$var wire 1 , LED [0] $end

$scope module i1 $end
$var wire 1 - gnd $end
$var wire 1 . vcc $end
$var wire 1 / unknown $end
$var tri1 1 0 devclrn $end
$var tri1 1 1 devpor $end
$var tri1 1 2 devoe $end
$var wire 1 3 CTS~output_o $end
$var wire 1 4 LED[7]~output_o $end
$var wire 1 5 LED[6]~output_o $end
$var wire 1 6 LED[5]~output_o $end
$var wire 1 7 LED[4]~output_o $end
$var wire 1 8 LED[3]~output_o $end
$var wire 1 9 LED[2]~output_o $end
$var wire 1 : LED[1]~output_o $end
$var wire 1 ; LED[0]~output_o $end
$var wire 1 < CLK~input_o $end
$var wire 1 = CLK~inputclkctrl_outclk $end
$var wire 1 > inst|newClk|count[0]~16_combout $end
$var wire 1 ? inst|newClk|count[0]~17 $end
$var wire 1 @ inst|newClk|count[1]~18_combout $end
$var wire 1 A inst|newClk|count[1]~19 $end
$var wire 1 B inst|newClk|count[2]~20_combout $end
$var wire 1 C inst|newClk|count[2]~21 $end
$var wire 1 D inst|newClk|count[3]~22_combout $end
$var wire 1 E inst|newClk|count[3]~23 $end
$var wire 1 F inst|newClk|count[4]~24_combout $end
$var wire 1 G inst|newClk|count[4]~25 $end
$var wire 1 H inst|newClk|count[5]~26_combout $end
$var wire 1 I inst|newClk|count[5]~27 $end
$var wire 1 J inst|newClk|count[6]~28_combout $end
$var wire 1 K inst|newClk|count[6]~29 $end
$var wire 1 L inst|newClk|count[7]~30_combout $end
$var wire 1 M inst|newClk|count[7]~31 $end
$var wire 1 N inst|newClk|count[8]~32_combout $end
$var wire 1 O inst|newClk|count[8]~33 $end
$var wire 1 P inst|newClk|count[9]~34_combout $end
$var wire 1 Q inst|newClk|count[9]~35 $end
$var wire 1 R inst|newClk|count[10]~36_combout $end
$var wire 1 S inst|newClk|CLK~3_combout $end
$var wire 1 T inst|newClk|count[10]~37 $end
$var wire 1 U inst|newClk|count[11]~38_combout $end
$var wire 1 V inst|newClk|count[11]~39 $end
$var wire 1 W inst|newClk|count[12]~40_combout $end
$var wire 1 X inst|newClk|count[12]~41 $end
$var wire 1 Y inst|newClk|count[13]~42_combout $end
$var wire 1 Z inst|newClk|count[13]~43 $end
$var wire 1 [ inst|newClk|count[14]~44_combout $end
$var wire 1 \ inst|newClk|count[14]~45 $end
$var wire 1 ] inst|newClk|count[15]~46_combout $end
$var wire 1 ^ inst|newClk|CLK~4_combout $end
$var wire 1 _ TX_D~input_o $end
$var wire 1 ` inst|count[0]~2_combout $end
$var wire 1 a inst|count[1]~6_combout $end
$var wire 1 b inst|count[1]~3_combout $end
$var wire 1 c inst|count[2]~4_combout $end
$var wire 1 d inst|count[3]~5_combout $end
$var wire 1 e inst|LOAD~0_combout $end
$var wire 1 f inst|change~0_combout $end
$var wire 1 g inst|change~q $end
$var wire 1 h inst|newClk|CLK~0_combout $end
$var wire 1 i inst|newClk|CLK~1_combout $end
$var wire 1 j inst|newClk|CLK~2_combout $end
$var wire 1 k inst|newClk|CLK~5_combout $end
$var wire 1 l inst|newClk|CLK~feeder_combout $end
$var wire 1 m inst|newClk|CLK~q $end
$var wire 1 n inst|newClk|CLK~clkctrl_outclk $end
$var wire 1 o RTS~input_o $end
$var wire 1 p inst|CTS~feeder_combout $end
$var wire 1 q inst|CTS~q $end
$var wire 1 r inst|Decoder0~8_combout $end
$var wire 1 s inst|data[1]~0_combout $end
$var wire 1 t inst|data[9]~9_combout $end
$var wire 1 u inst|Decoder0~9_combout $end
$var wire 1 v inst|data~10_combout $end
$var wire 1 w inst|LOAD~1_combout $end
$var wire 1 x inst|LOAD~2_combout $end
$var wire 1 y inst|LOAD~feeder_combout $end
$var wire 1 z inst|LOAD~q $end
$var wire 1 { inst|LOAD~clkctrl_outclk $end
$var wire 1 | inst|Decoder0~0_combout $end
$var wire 1 } inst|data[8]~1_combout $end
$var wire 1 ~ inst|data[8]~feeder_combout $end
$var wire 1 !! inst1|BYTEOUT[7]~feeder_combout $end
$var wire 1 "! inst|Decoder0~1_combout $end
$var wire 1 #! inst|data[7]~2_combout $end
$var wire 1 $! inst|data[7]~feeder_combout $end
$var wire 1 %! inst1|BYTEOUT[6]~feeder_combout $end
$var wire 1 &! inst|Decoder0~2_combout $end
$var wire 1 '! inst|data[6]~3_combout $end
$var wire 1 (! inst|data[6]~feeder_combout $end
$var wire 1 )! inst1|BYTEOUT[5]~feeder_combout $end
$var wire 1 *! inst|Decoder0~3_combout $end
$var wire 1 +! inst|data[5]~4_combout $end
$var wire 1 ,! inst|data[5]~feeder_combout $end
$var wire 1 -! inst1|BYTEOUT[4]~feeder_combout $end
$var wire 1 .! inst|Decoder0~4_combout $end
$var wire 1 /! inst|data[4]~5_combout $end
$var wire 1 0! inst|data[4]~feeder_combout $end
$var wire 1 1! inst1|BYTEOUT[3]~feeder_combout $end
$var wire 1 2! inst|Decoder0~5_combout $end
$var wire 1 3! inst|data[3]~6_combout $end
$var wire 1 4! inst|data[3]~feeder_combout $end
$var wire 1 5! inst1|BYTEOUT[2]~feeder_combout $end
$var wire 1 6! inst|Decoder0~6_combout $end
$var wire 1 7! inst|data[2]~7_combout $end
$var wire 1 8! inst|data[2]~feeder_combout $end
$var wire 1 9! inst1|BYTEOUT[1]~feeder_combout $end
$var wire 1 :! inst|Decoder0~7_combout $end
$var wire 1 ;! inst|data[1]~8_combout $end
$var wire 1 <! inst|data[1]~feeder_combout $end
$var wire 1 =! inst1|BYTEOUT[0]~feeder_combout $end
$var wire 1 >! inst|newClk|count [15] $end
$var wire 1 ?! inst|newClk|count [14] $end
$var wire 1 @! inst|newClk|count [13] $end
$var wire 1 A! inst|newClk|count [12] $end
$var wire 1 B! inst|newClk|count [11] $end
$var wire 1 C! inst|newClk|count [10] $end
$var wire 1 D! inst|newClk|count [9] $end
$var wire 1 E! inst|newClk|count [8] $end
$var wire 1 F! inst|newClk|count [7] $end
$var wire 1 G! inst|newClk|count [6] $end
$var wire 1 H! inst|newClk|count [5] $end
$var wire 1 I! inst|newClk|count [4] $end
$var wire 1 J! inst|newClk|count [3] $end
$var wire 1 K! inst|newClk|count [2] $end
$var wire 1 L! inst|newClk|count [1] $end
$var wire 1 M! inst|newClk|count [0] $end
$var wire 1 N! inst1|BYTEOUT [7] $end
$var wire 1 O! inst1|BYTEOUT [6] $end
$var wire 1 P! inst1|BYTEOUT [5] $end
$var wire 1 Q! inst1|BYTEOUT [4] $end
$var wire 1 R! inst1|BYTEOUT [3] $end
$var wire 1 S! inst1|BYTEOUT [2] $end
$var wire 1 T! inst1|BYTEOUT [1] $end
$var wire 1 U! inst1|BYTEOUT [0] $end
$var wire 1 V! inst|data [9] $end
$var wire 1 W! inst|data [8] $end
$var wire 1 X! inst|data [7] $end
$var wire 1 Y! inst|data [6] $end
$var wire 1 Z! inst|data [5] $end
$var wire 1 [! inst|data [4] $end
$var wire 1 \! inst|data [3] $end
$var wire 1 ]! inst|data [2] $end
$var wire 1 ^! inst|data [1] $end
$var wire 1 _! inst|data [0] $end
$var wire 1 `! inst|count [3] $end
$var wire 1 a! inst|count [2] $end
$var wire 1 b! inst|count [1] $end
$var wire 1 c! inst|count [0] $end
$upscope $end
$upscope $end
$enddefinitions $end
#0
$dumpvars
0!
x"
1#
0$
0,
0+
0*
0)
0(
0'
0&
0%
0-
1.
x/
10
11
12
03
04
05
06
07
08
09
0:
0;
0<
0=
1>
0?
0@
1A
0B
0C
0D
1E
0F
0G
0H
1I
0J
0K
0L
1M
0N
0O
0P
1Q
0R
1S
0T
0U
1V
0W
0X
0Y
1Z
0[
0\
0]
1^
1_
0`
0a
0b
0c
0d
0e
0f
0g
1h
1i
1j
0k
0l
0m
0n
xo
xp
0q
0r
0s
0t
1u
0v
1w
0x
0y
0z
0{
0|
0}
0~
0!!
0"!
0#!
0$!
0%!
0&!
0'!
0(!
0)!
0*!
0+!
0,!
0-!
0.!
0/!
00!
01!
02!
03!
04!
05!
06!
07!
08!
09!
0:!
0;!
0<!
0=!
0M!
0L!
0K!
0J!
0I!
0H!
0G!
0F!
0E!
0D!
0C!
0B!
0A!
0@!
0?!
0>!
0U!
0T!
0S!
0R!
0Q!
0P!
0O!
0N!
0_!
0^!
0]!
0\!
0[!
0Z!
0Y!
0X!
0W!
0V!
0c!
0b!
0a!
0`!
$end
#5000
1!
1<
1=
1M!
0j
1?
0>
1k
1@
1l
#10000
0!
0<
0=
#15000
1!
1<
1=
1m
0M!
1n
1j
0?
1>
0k
0@
0l
xq
x3
x$
#20000
0!
0<
0=
#25000
1!
1<
1=
0m
1M!
0n
0j
1?
0>
1k
1@
1l
#30000
0!
0<
0=
#35000
1!
1<
1=
1m
0M!
1n
1j
0?
1>
0k
0@
0l
#40000
0#
0!
0_
0<
0=
0w
1f
1`
#45000
1!
1<
1=
0m
1M!
0n
0j
1?
0>
1k
1@
1l
#50000
0!
0<
0=
#55000
1!
1<
1=
1m
0M!
1n
1j
0?
1>
0k
0@
0l
1g
1c!
1s
1b
1:!
0u
1a
0`
#60000
0!
0<
0=
#65000
1!
1<
1=
0m
1M!
0n
1?
0>
1@
#70000
0!
0<
0=
#75000
1!
1<
1=
1L!
0M!
0A
0?
0@
1>
1A
1B
1@
0B
#80000
1#
0!
1_
0<
0=
1;!
1<!
#85000
1!
1<
1=
1M!
1?
0>
0A
0@
1B
#90000
0!
0<
0=
#95000
1!
1<
1=
1K!
0L!
0M!
0i
1C
1A
0?
0B
1@
1>
0j
0C
1D
1B
0@
1k
0D
1l
#100000
0!
0<
0=
#105000
1!
1<
1=
1m
0K!
1n
1i
0B
1j
0k
0l
1^!
1b!
0c!
0:!
16!
0b
1=!
1c
1`
17!
0c
18!
#110000
0!
0<
0=
#115000
1!
1<
1=
0m
1M!
0n
1?
0>
1@
#120000
0#
0!
0_
0<
0=
07!
08!
#125000
1!
1<
1=
1L!
0M!
0A
0?
0@
1>
1A
1B
1@
0B
#130000
0!
0<
0=
#135000
1!
1<
1=
1M!
1?
0>
0A
0@
1B
#140000
0!
0<
0=
#145000
1!
1<
1=
1K!
0L!
0M!
0i
1C
1A
0?
0B
1@
1>
0j
0C
1D
1B
0@
1k
0D
1l
#150000
0!
0<
0=
#155000
1!
1<
1=
1m
0K!
1n
1i
0B
1j
0k
0l
1c!
06!
12!
1b
0a
0`
1c
#160000
1#
0!
1_
0<
0=
13!
14!
#165000
1!
1<
1=
0m
1M!
0n
1?
0>
1@
#170000
0!
0<
0=
#175000
1!
1<
1=
1L!
0M!
0A
0?
0@
1>
1A
1B
1@
0B
#180000
0!
0<
0=
#185000
1!
1<
1=
1M!
1?
0>
0A
0@
1B
#190000
0!
0<
0=
#195000
1!
1<
1=
1K!
0L!
0M!
0i
1C
1A
0?
0B
1@
1>
0j
0C
1D
1B
0@
1k
0D
1l
#200000
0#
0!
0_
0<
0=
03!
04!
#205000
1!
1<
1=
1m
0K!
1n
1i
0B
1j
0k
0l
1a!
0b!
0c!
02!
1.!
0b
1`
#210000
0!
0<
0=
#215000
1!
1<
1=
0m
1M!
0n
1?
0>
1@
#220000
0!
0<
0=
#225000
1!
1<
1=
1L!
0M!
0A
0?
0@
1>
1A
1B
1@
0B
#230000
0!
0<
0=
#235000
1!
1<
1=
1M!
1?
0>
0A
0@
1B
#240000
1#
0!
1_
0<
0=
1/!
10!
#245000
1!
1<
1=
1K!
0L!
0M!
0i
1C
1A
0?
0B
1@
1>
0j
0C
1D
1B
0@
1k
0D
1l
#250000
0!
0<
0=
#255000
1!
1<
1=
1m
0K!
1n
1i
0B
1j
0k
0l
1[!
1c!
0.!
1*!
1b
11!
1a
0`
1+!
1,!
#260000
0!
0<
0=
#265000
1!
1<
1=
0m
1M!
0n
1?
0>
1@
#270000
0!
0<
0=
#275000
1!
1<
1=
1L!
0M!
0A
0?
0@
1>
1A
1B
1@
0B
#280000
0#
0!
0_
0<
0=
0+!
0,!
#285000
1!
1<
1=
1M!
1?
0>
0A
0@
1B
#290000
0!
0<
0=
#295000
1!
1<
1=
1K!
0L!
0M!
0i
1C
1A
0?
0B
1@
1>
0j
0C
1D
1B
0@
1k
0D
1l
#300000
0!
0<
0=
#305000
1!
1<
1=
1m
0K!
1n
1i
0B
1j
0k
0l
1b!
0c!
0*!
1&!
0b
1d
0c
1`
0d
1c
#310000
0!
0<
0=
#315000
1!
1<
1=
0m
1M!
0n
1?
0>
1@
#320000
1#
0!
1_
0<
0=
1'!
1(!
#325000
1!
1<
1=
1L!
0M!
0A
0?
0@
1>
1A
1B
1@
0B
#330000
0!
0<
0=
#335000
1!
1<
1=
1M!
1?
0>
0A
0@
1B
#340000
0!
0<
0=
#345000
1!
1<
1=
1K!
0L!
0M!
0i
1C
1A
0?
0B
1@
1>
0j
0C
1D
1B
0@
1k
0D
1l
#350000
0!
0<
0=
#355000
1!
1<
1=
1m
0K!
1n
1i
0B
1j
0k
0l
1Y!
1c!
0&!
1"!
1b
1)!
0a
0`
1#!
1d
0c
1$!
#360000
0#
0!
0_
0<
0=
0#!
0$!
#365000
1!
1<
1=
0m
1M!
0n
1?
0>
1@
#370000
0!
0<
0=
#375000
1!
1<
1=
1L!
0M!
0A
0?
0@
1>
1A
1B
1@
0B
#380000
0!
0<
0=
#385000
1!
1<
1=
1M!
1?
0>
0A
0@
1B
#390000
0!
0<
0=
#395000
1!
1<
1=
1K!
0L!
0M!
0i
1C
1A
0?
0B
1@
1>
0j
0C
1D
1B
0@
1k
0D
1l
#400000
1#
0!
1_
0<
0=
1#!
1$!
#405000
1!
1<
1=
1m
0K!
1n
1i
0B
1j
0k
0l
1X!
1`!
0a!
0b!
0c!
0"!
1|
0b
1%!
1`
1}
1~
#410000
0!
0<
0=
#415000
1!
1<
1=
0m
1M!
0n
1?
0>
1@
#420000
0!
0<
0=
#425000
1!
1<
1=
1L!
0M!
0A
0?
0@
1>
1A
1B
1@
0B
#430000
0!
0<
0=
#435000
1!
1<
1=
1M!
1?
0>
0A
0@
1B
#440000
0!
0<
0=
#445000
1!
1<
1=
1K!
0L!
0M!
0i
1C
1A
0?
0B
1@
1>
0j
0C
1D
1B
0@
1k
0D
1l
#450000
0!
0<
0=
#455000
1!
1<
1=
1m
0K!
1n
1i
0B
1j
0k
0l
1W!
1c!
0|
1r
1b
1!!
1a
0`
1t
#460000
0!
0<
0=
#465000
1!
1<
1=
0m
1M!
0n
1?
0>
1@
#470000
0!
0<
0=
#475000
1!
1<
1=
1L!
0M!
0A
0?
0@
1>
1A
1B
1@
0B
#480000
0!
0<
0=
#485000
1!
1<
1=
1M!
1?
0>
0A
0@
1B
#490000
0!
0<
0=
#495000
1!
1<
1=
1K!
0L!
0M!
0i
1C
1A
0?
0B
1@
1>
0j
0C
1D
1B
0@
1k
0D
1l
#500000
0!
0<
0=
#505000
1!
1<
1=
1m
0K!
1n
1i
0B
1j
0k
0l
1V!
1b!
0c!
1w
0r
1e
0b
1c
1`
1x
0s
0f
0`
0c
1y
#510000
0!
0<
0=
#515000
1!
1<
1=
0m
1M!
0n
1?
0>
1@
#520000
0!
0<
0=
#525000
1!
1<
1=
1L!
0M!
0A
0?
0@
1>
1A
1B
1@
0B
#530000
0!
0<
0=
#535000
1!
1<
1=
1M!
1?
0>
0A
0@
1B
#540000
0!
0<
0=
#545000
1!
1<
1=
1K!
0L!
0M!
0i
1C
1A
0?
0B
1@
1>
0j
0C
1D
1B
0@
1k
0D
1l
#550000
0!
0<
0=
#555000
1!
1<
1=
1m
0K!
1n
1i
0B
1j
0k
0l
1z
0g
1{
1U!
1R!
1P!
1O!
1N!
14
15
16
18
1;
1,
1)
1'
1&
1%
#560000
0!
0<
0=
#565000
1!
1<
1=
0m
1M!
0n
0j
1?
0>
1k
1@
1l
#570000
0!
0<
0=
#575000
1!
1<
1=
1m
0M!
1n
1j
0?
1>
0k
0@
0l
#580000
0!
0<
0=
#585000
1!
1<
1=
0m
1M!
0n
0j
1?
0>
1k
1@
1l
#590000
0!
0<
0=
#595000
1!
1<
1=
1m
0M!
1n
1j
0?
1>
0k
0@
0l
#600000
0!
0<
0=
#605000
1!
1<
1=
0m
1M!
0n
0j
1?
0>
1k
1@
1l
#610000
0!
0<
0=
#615000
1!
1<
1=
1m
0M!
1n
1j
0?
1>
0k
0@
0l
#620000
0!
0<
0=
#625000
1!
1<
1=
0m
1M!
0n
0j
1?
0>
1k
1@
1l
#630000
0!
0<
0=
#635000
1!
1<
1=
1m
0M!
1n
1j
0?
1>
0k
0@
0l
#640000
0!
0<
0=
#645000
1!
1<
1=
0m
1M!
0n
0j
1?
0>
1k
1@
1l
#650000
0!
0<
0=
#655000
1!
1<
1=
1m
0M!
1n
1j
0?
1>
0k
0@
0l
#660000
0!
0<
0=
#665000
1!
1<
1=
0m
1M!
0n
0j
1?
0>
1k
1@
1l
#670000
0!
0<
0=
#675000
1!
1<
1=
1m
0M!
1n
1j
0?
1>
0k
0@
0l
#680000
0!
0<
0=
#685000
1!
1<
1=
0m
1M!
0n
0j
1?
0>
1k
1@
1l
#690000
0!
0<
0=
#695000
1!
1<
1=
1m
0M!
1n
1j
0?
1>
0k
0@
0l
#700000
0!
0<
0=
#705000
1!
1<
1=
0m
1M!
0n
0j
1?
0>
1k
1@
1l
#710000
0!
0<
0=
#715000
1!
1<
1=
1m
0M!
1n
1j
0?
1>
0k
0@
0l
#720000
0!
0<
0=
#725000
1!
1<
1=
0m
1M!
0n
0j
1?
0>
1k
1@
1l
#730000
0!
0<
0=
#735000
1!
1<
1=
1m
0M!
1n
1j
0?
1>
0k
0@
0l
#740000
0!
0<
0=
#745000
1!
1<
1=
0m
1M!
0n
0j
1?
0>
1k
1@
1l
#750000
0!
0<
0=
#755000
1!
1<
1=
1m
0M!
1n
1j
0?
1>
0k
0@
0l
#760000
0!
0<
0=
#765000
1!
1<
1=
0m
1M!
0n
0j
1?
0>
1k
1@
1l
#770000
0!
0<
0=
#775000
1!
1<
1=
1m
0M!
1n
1j
0?
1>
0k
0@
0l
#780000
0!
0<
0=
#785000
1!
1<
1=
0m
1M!
0n
0j
1?
0>
1k
1@
1l
#790000
0!
0<
0=
#795000
1!
1<
1=
1m
0M!
1n
1j
0?
1>
0k
0@
0l
#800000
0!
0<
0=
#805000
1!
1<
1=
0m
1M!
0n
0j
1?
0>
1k
1@
1l
#810000
0!
0<
0=
#815000
1!
1<
1=
1m
0M!
1n
1j
0?
1>
0k
0@
0l
#820000
0!
0<
0=
#825000
1!
1<
1=
0m
1M!
0n
0j
1?
0>
1k
1@
1l
#830000
0!
0<
0=
#835000
1!
1<
1=
1m
0M!
1n
1j
0?
1>
0k
0@
0l
#840000
0!
0<
0=
#845000
1!
1<
1=
0m
1M!
0n
0j
1?
0>
1k
1@
1l
#850000
0!
0<
0=
#855000
1!
1<
1=
1m
0M!
1n
1j
0?
1>
0k
0@
0l
#860000
0!
0<
0=
#865000
1!
1<
1=
0m
1M!
0n
0j
1?
0>
1k
1@
1l
#870000
0!
0<
0=
#875000
1!
1<
1=
1m
0M!
1n
1j
0?
1>
0k
0@
0l
#880000
0!
0<
0=
#885000
1!
1<
1=
0m
1M!
0n
0j
1?
0>
1k
1@
1l
#890000
0!
0<
0=
#895000
1!
1<
1=
1m
0M!
1n
1j
0?
1>
0k
0@
0l
#900000
0!
0<
0=
#905000
1!
1<
1=
0m
1M!
0n
0j
1?
0>
1k
1@
1l
#910000
0!
0<
0=
#915000
1!
1<
1=
1m
0M!
1n
1j
0?
1>
0k
0@
0l
#920000
0!
0<
0=
#925000
1!
1<
1=
0m
1M!
0n
0j
1?
0>
1k
1@
1l
#930000
0!
0<
0=
#935000
1!
1<
1=
1m
0M!
1n
1j
0?
1>
0k
0@
0l
#940000
0!
0<
0=
#945000
1!
1<
1=
0m
1M!
0n
0j
1?
0>
1k
1@
1l
#950000
0!
0<
0=
#955000
1!
1<
1=
1m
0M!
1n
1j
0?
1>
0k
0@
0l
#960000
0!
0<
0=
#965000
1!
1<
1=
0m
1M!
0n
0j
1?
0>
1k
1@
1l
#970000
0!
0<
0=
#975000
1!
1<
1=
1m
0M!
1n
1j
0?
1>
0k
0@
0l
#980000
0!
0<
0=
#985000
1!
1<
1=
0m
1M!
0n
0j
1?
0>
1k
1@
1l
#990000
0!
0<
0=
#995000
1!
1<
1=
1m
0M!
1n
1j
0?
1>
0k
0@
0l
