Serial To SPI/simulation/qsim/SerialtoSpi.msim.vcd
$comment
	File created using the following command:
		vcd file SerialtoSpi.msim.vcd -direction
$end
$date
	Fri Mar 18 20:17:23 2016
$end
$version
	ModelSim Version 10.4b
$end
$timescale
	1ps
$end

$scope module UART_IN_vlg_vec_tst $end
$var reg 1 ! RTS $end
$var reg 1 " TX_D $end
$var reg 1 # clk $end
$var wire 1 $ BYTEOUT [7] $end
$var wire 1 % BYTEOUT [6] $end
$var wire 1 & BYTEOUT [5] $end
$var wire 1 ' BYTEOUT [4] $end
$var wire 1 ( BYTEOUT [3] $end
$var wire 1 ) BYTEOUT [2] $end
$var wire 1 * BYTEOUT [1] $end
$var wire 1 + BYTEOUT [0] $end
$var wire 1 , CTS $end
$var wire 1 - load $end

$scope module i1 $end
$var wire 1 . gnd $end
$var wire 1 / vcc $end
$var wire 1 0 unknown $end
$var tri1 1 1 devclrn $end
$var tri1 1 2 devpor $end
$var tri1 1 3 devoe $end
$var wire 1 4 CTS~output_o $end
$var wire 1 5 BYTEOUT[0]~output_o $end
$var wire 1 6 BYTEOUT[1]~output_o $end
$var wire 1 7 BYTEOUT[2]~output_o $end
$var wire 1 8 BYTEOUT[3]~output_o $end
$var wire 1 9 BYTEOUT[4]~output_o $end
$var wire 1 : BYTEOUT[5]~output_o $end
$var wire 1 ; BYTEOUT[6]~output_o $end
$var wire 1 < BYTEOUT[7]~output_o $end
$var wire 1 = load~output_o $end
$var wire 1 > clk~input_o $end
$var wire 1 ? clk~inputclkctrl_outclk $end
$var wire 1 @ change_clk|Add0~0_combout $end
$var wire 1 A change_clk|count~33_combout $end
$var wire 1 B change_clk|Add0~1 $end
$var wire 1 C change_clk|Add0~2_combout $end
$var wire 1 D change_clk|Add0~3 $end
$var wire 1 E change_clk|Add0~4_combout $end
$var wire 1 F change_clk|count~24_combout $end
$var wire 1 G change_clk|Add0~5 $end
$var wire 1 H change_clk|Add0~6_combout $end
$var wire 1 I change_clk|count~31_combout $end
$var wire 1 J change_clk|Add0~7 $end
$var wire 1 K change_clk|Add0~8_combout $end
$var wire 1 L change_clk|count~28_combout $end
$var wire 1 M change_clk|Add0~9 $end
$var wire 1 N change_clk|Add0~10_combout $end
$var wire 1 O change_clk|count~30_combout $end
$var wire 1 P change_clk|Add0~11 $end
$var wire 1 Q change_clk|Add0~12_combout $end
$var wire 1 R change_clk|count~27_combout $end
$var wire 1 S change_clk|Add0~13 $end
$var wire 1 T change_clk|Add0~14_combout $end
$var wire 1 U change_clk|count~29_combout $end
$var wire 1 V change_clk|Add0~15 $end
$var wire 1 W change_clk|Add0~16_combout $end
$var wire 1 X change_clk|count~25_combout $end
$var wire 1 Y change_clk|Add0~17 $end
$var wire 1 Z change_clk|Add0~18_combout $end
$var wire 1 [ change_clk|count~34_combout $end
$var wire 1 \ change_clk|Add0~19 $end
$var wire 1 ] change_clk|Add0~20_combout $end
$var wire 1 ^ change_clk|count~32_combout $end
$var wire 1 _ change_clk|Add0~21 $end
$var wire 1 ` change_clk|Add0~22_combout $end
$var wire 1 a change_clk|count~35_combout $end
$var wire 1 b change_clk|Add0~23 $end
$var wire 1 c change_clk|Add0~24_combout $end
$var wire 1 d change_clk|count~26_combout $end
$var wire 1 e change_clk|newclk~0_combout $end
$var wire 1 f RTS~input_o $end
$var wire 1 g count~6_combout $end
$var wire 1 h count~7_combout $end
$var wire 1 i Add0~0_combout $end
$var wire 1 j count~9_combout $end
$var wire 1 k count~8_combout $end
$var wire 1 l always0~0_combout $end
$var wire 1 m change~q $end
$var wire 1 n change_clk|newclk~1_combout $end
$var wire 1 o change_clk|Add0~25 $end
$var wire 1 p change_clk|Add0~26_combout $end
$var wire 1 q change_clk|count~36_combout $end
$var wire 1 r change_clk|Add0~27 $end
$var wire 1 s change_clk|Add0~28_combout $end
$var wire 1 t change_clk|count~37_combout $end
$var wire 1 u change_clk|Add0~29 $end
$var wire 1 v change_clk|Add0~30_combout $end
$var wire 1 w change_clk|count~38_combout $end
$var wire 1 x change_clk|Add0~31 $end
$var wire 1 y change_clk|Add0~32_combout $end
$var wire 1 z change_clk|count~39_combout $end
$var wire 1 { change_clk|Add0~33 $end
$var wire 1 | change_clk|Add0~34_combout $end
$var wire 1 } change_clk|count~40_combout $end
$var wire 1 ~ change_clk|Add0~35 $end
$var wire 1 !! change_clk|Add0~36_combout $end
$var wire 1 "! change_clk|count~41_combout $end
$var wire 1 #! change_clk|Add0~37 $end
$var wire 1 $! change_clk|Add0~38_combout $end
$var wire 1 %! change_clk|count~42_combout $end
$var wire 1 &! change_clk|newclk~5_combout $end
$var wire 1 '! change_clk|newclk~3_combout $end
$var wire 1 (! change_clk|newclk~4_combout $end
$var wire 1 )! change_clk|newclk~2_combout $end
$var wire 1 *! change_clk|newclk~6_combout $end
$var wire 1 +! change_clk|Add0~39 $end
$var wire 1 ,! change_clk|Add0~40_combout $end
$var wire 1 -! change_clk|count~43_combout $end
$var wire 1 .! change_clk|Add0~41 $end
$var wire 1 /! change_clk|Add0~42_combout $end
$var wire 1 0! change_clk|count~44_combout $end
$var wire 1 1! change_clk|Add0~43 $end
$var wire 1 2! change_clk|Add0~44_combout $end
$var wire 1 3! change_clk|count~45_combout $end
$var wire 1 4! change_clk|Add0~45 $end
$var wire 1 5! change_clk|Add0~46_combout $end
$var wire 1 6! change_clk|count~46_combout $end
$var wire 1 7! change_clk|Add0~47 $end
$var wire 1 8! change_clk|Add0~48_combout $end
$var wire 1 9! change_clk|count~47_combout $end
$var wire 1 :! change_clk|Add0~49 $end
$var wire 1 ;! change_clk|Add0~50_combout $end
$var wire 1 <! change_clk|count~48_combout $end
$var wire 1 =! change_clk|Add0~51 $end
$var wire 1 >! change_clk|Add0~52_combout $end
$var wire 1 ?! change_clk|count~49_combout $end
$var wire 1 @! change_clk|Add0~53 $end
$var wire 1 A! change_clk|Add0~54_combout $end
$var wire 1 B! change_clk|count~50_combout $end
$var wire 1 C! change_clk|newclk~8_combout $end
$var wire 1 D! change_clk|Add0~55 $end
$var wire 1 E! change_clk|Add0~56_combout $end
$var wire 1 F! change_clk|count~51_combout $end
$var wire 1 G! change_clk|Add0~57 $end
$var wire 1 H! change_clk|Add0~58_combout $end
$var wire 1 I! change_clk|count~52_combout $end
$var wire 1 J! change_clk|Add0~59 $end
$var wire 1 K! change_clk|Add0~60_combout $end
$var wire 1 L! change_clk|count~53_combout $end
$var wire 1 M! change_clk|Add0~61 $end
$var wire 1 N! change_clk|Add0~62_combout $end
$var wire 1 O! change_clk|count~54_combout $end
$var wire 1 P! change_clk|newclk~9_combout $end
$var wire 1 Q! change_clk|newclk~7_combout $end
$var wire 1 R! change_clk|newclk~10_combout $end
$var wire 1 S! change_clk|newclk~11_combout $end
$var wire 1 T! change_clk|newclk~q $end
$var wire 1 U! change_clk|newclk~clkctrl_outclk $end
$var wire 1 V! CTS~reg0feeder_combout $end
$var wire 1 W! CTS~reg0_q $end
$var wire 1 X! TX_D~input_o $end
$var wire 1 Y! data_in[0]~feeder_combout $end
$var wire 1 Z! data_in[1]~feeder_combout $end
$var wire 1 [! data_in[5]~feeder_combout $end
$var wire 1 \! data_in[6]~feeder_combout $end
$var wire 1 ]! data_in[7]~feeder_combout $end
$var wire 1 ^! data_in[8]~feeder_combout $end
$var wire 1 _! data_in[9]~feeder_combout $end
$var wire 1 `! always0~1_combout $end
$var wire 1 a! BYTEOUT[0]~0_combout $end
$var wire 1 b! BYTEOUT[0]~reg0_q $end
$var wire 1 c! BYTEOUT[1]~1_combout $end
$var wire 1 d! BYTEOUT[1]~reg0_q $end
$var wire 1 e! BYTEOUT[2]~2_combout $end
$var wire 1 f! BYTEOUT[2]~reg0_q $end
$var wire 1 g! BYTEOUT[3]~3_combout $end
$var wire 1 h! BYTEOUT[3]~reg0_q $end
$var wire 1 i! BYTEOUT[4]~reg0_q $end
$var wire 1 j! BYTEOUT[5]~reg0feeder_combout $end
$var wire 1 k! BYTEOUT[5]~reg0_q $end
$var wire 1 l! BYTEOUT[6]~reg0feeder_combout $end
$var wire 1 m! BYTEOUT[6]~reg0_q $end
$var wire 1 n! BYTEOUT[7]~reg0feeder_combout $end
$var wire 1 o! BYTEOUT[7]~reg0_q $end
$var wire 1 p! count [3] $end
$var wire 1 q! count [2] $end
$var wire 1 r! count [1] $end
$var wire 1 s! count [0] $end
$var wire 1 t! data_in [9] $end
$var wire 1 u! data_in [8] $end
$var wire 1 v! data_in [7] $end
$var wire 1 w! data_in [6] $end
$var wire 1 x! data_in [5] $end
$var wire 1 y! data_in [4] $end
$var wire 1 z! data_in [3] $end
$var wire 1 {! data_in [2] $end
$var wire 1 |! data_in [1] $end
$var wire 1 }! data_in [0] $end
$var wire 1 ~! change_clk|count [31] $end
$var wire 1 !" change_clk|count [30] $end
$var wire 1 "" change_clk|count [29] $end
$var wire 1 #" change_clk|count [28] $end
$var wire 1 $" change_clk|count [27] $end
$var wire 1 %" change_clk|count [26] $end
$var wire 1 &" change_clk|count [25] $end
$var wire 1 '" change_clk|count [24] $end
$var wire 1 (" change_clk|count [23] $end
$var wire 1 )" change_clk|count [22] $end
$var wire 1 *" change_clk|count [21] $end
$var wire 1 +" change_clk|count [20] $end
$var wire 1 ," change_clk|count [19] $end
$var wire 1 -" change_clk|count [18] $end
$var wire 1 ." change_clk|count [17] $end
$var wire 1 /" change_clk|count [16] $end
$var wire 1 0" change_clk|count [15] $end
$var wire 1 1" change_clk|count [14] $end
$var wire 1 2" change_clk|count [13] $end
$var wire 1 3" change_clk|count [12] $end
$var wire 1 4" change_clk|count [11] $end
$var wire 1 5" change_clk|count [10] $end
$var wire 1 6" change_clk|count [9] $end
$var wire 1 7" change_clk|count [8] $end
$var wire 1 8" change_clk|count [7] $end
$var wire 1 9" change_clk|count [6] $end
$var wire 1 :" change_clk|count [5] $end
$var wire 1 ;" change_clk|count [4] $end
$var wire 1 <" change_clk|count [3] $end
$var wire 1 =" change_clk|count [2] $end
$var wire 1 >" change_clk|count [1] $end
$var wire 1 ?" change_clk|count [0] $end
$upscope $end
$upscope $end
$enddefinitions $end
#0
$dumpvars
0!
0"
0#
0+
0*
0)
0(
0'
0&
0%
0$
0,
0-
0.
1/
x0
11
12
13
04
05
06
07
08
09
0:
0;
0<
0=
0>
0?
1@
1A
0B
0C
1D
0E
0F
0G
0H
0I
1J
0K
0L
0M
0N
0O
1P
0Q
0R
0S
0T
0U
1V
0W
0X
0Y
0Z
0[
1\
0]
0^
0_
0`
0a
1b
0c
0d
0e
0f
0g
0h
0i
0j
0k
0l
0m
0n
0o
0p
0q
1r
0s
0t
0u
0v
0w
1x
0y
0z
0{
0|
0}
1~
0!!
0"!
0#!
0$!
0%!
1&!
0'!
1(!
0)!
0*!
1+!
0,!
0-!
0.!
0/!
00!
11!
02!
03!
04!
05!
06!
17!
08!
09!
0:!
0;!
0<!
1=!
0>!
0?!
0@!
0A!
0B!
1C!
1D!
0E!
0F!
0G!
0H!
0I!
1J!
0K!
0L!
0M!
0N!
0O!
1P!
1Q!
1R!
0S!
0T!
0U!
0V!
0W!
0X!
0Y!
0Z!
0[!
0\!
0]!
0^!
0_!
0`!
1a!
0b!
1c!
0d!
1e!
0f!
1g!
0h!
0i!
0j!
0k!
0l!
0m!
0n!
0o!
0s!
0r!
0q!
0p!
0}!
0|!
0{!
0z!
0y!
0x!
0w!
0v!
0u!
0t!
0?"
0>"
0="
0<"
0;"
0:"
09"
08"
07"
06"
05"
04"
03"
02"
01"
00"
0/"
0."
0-"
0,"
0+"
0*"
0)"
0("
0'"
0&"
0%"
0$"
0#"
0""
0!"
0~!
$end
#10000
1#
1>
1?
1?"
1B
0@
0A
1C
#20000
0#
0>
0?
#30000
1#
1>
1?
1>"
0?"
0D
0B
1@
0C
1E
1D
1A
1C
1F
0E
0F
#40000
0#
0>
0?
#50000
1#
1>
1?
1?"
1B
0@
0D
0A
0C
1E
1F
#60000
0#
0>
0?
#70000
1#
1>
1?
1="
0>"
0?"
1G
0E
1D
0B
1@
1C
1H
0F
0G
1E
1A
0C
1I
0H
1F
0I
#80000
0#
0>
0?
#90000
1#
1>
1?
1?"
1B
0@
0A
1C
#100000
0#
0>
0?
#110000
1#
1>
1?
1>"
0?"
0D
0B
1@
0C
1G
0E
1D
1A
1C
1H
0F
0G
1E
1I
0H
1F
0I
#120000
0#
0>
0?
#130000
1#
1>
1?
1?"
1B
0@
0D
0A
0C
1G
0E
1H
0F
1I
#140000
0#
0>
0?
#150000
1#
1>
1?
1<"
0="
0>"
0?"
0J
0H
0G
1E
1D
0B
1@
1C
1K
0I
1J
1H
1F
0E
1A
0C
1L
0K
1I
0F
0L
#160000
0#
0>
0?
#170000
1#
1>
1?
1?"
1B
0@
0A
1C
#180000
0#
0>
0?
#190000
1#
1>
1?
1>"
0?"
0D
0B
1@
0C
1E
1D
1A
1C
1F
0E
0F
#200000
0#
0>
0?
#210000
1#
1>
1?
1?"
1B
0@
0D
0A
0C
1E
1F
#220000
0#
0>
0?
#230000
1#
1>
1?
1="
0>"
0?"
1G
0E
1D
0B
1@
1C
0J
0H
0F
0G
1E
1A
0C
1K
0I
1J
1H
1F
1L
0K
1I
0L
#240000
0#
0>
0?
#250000
1#
1>
1?
1?"
1B
0@
0A
1C
#260000
0#
0>
0?
#270000
1#
1>
1?
1>"
0?"
0D
0B
1@
0C
1G
0E
1D
1A
1C
0J
0H
0F
0G
1E
1K
0I
1J
1H
1F
1L
0K
1I
0L
#280000
0#
0>
0?
#290000
1#
1>
1?
1?"
1B
0@
0D
0A
0C
1G
0E
0J
0H
0F
1K
0I
1L
#300000
0#
0>
0?
#310000
1#
1>
1?
1;"
0<"
0="
0>"
0?"
1)!
1M
0K
1J
1H
0G
1E
1D
0B
1@
1C
1N
0L
0M
1K
1I
0H
1F
0E
1A
0C
0N
1L
0I
0F
1O
0O
#320000
0#
0>
0?
#330000
1#
1>
1?
1?"
1B
0@
0A
1C
#340000
0#
0>
0?
#350000
1#
1>
1?
1>"
0?"
0D
0B
1@
0C
1E
1D
1A
1C
1F
0E
0F
#360000
0#
0>
0?
#370000
1#
1>
1?
1?"
1B
0@
0D
0A
0C
1E
1F
#380000
0#
0>
0?
#390000
1#
1>
1?
1="
0>"
0?"
1G
0E
1D
0B
1@
1C
1H
0F
0G
1E
1A
0C
1I
0H
1F
0I
#400000
0#
0>
0?
#410000
1#
1>
1?
1?"
1B
0@
0A
1C
#420000
0#
0>
0?
#430000
1#
1>
1?
1>"
0?"
0D
0B
1@
0C
1G
0E
1D
1A
1C
1H
0F
0G
1E
1I
0H
1F
0I
#440000
0#
0>
0?
#450000
1#
1>
1?
1?"
1B
0@
0D
0A
0C
1G
0E
1H
0F
1I
#460000
0#
0>
0?
#470000
1#
1>
1?
1<"
0="
0>"
0?"
0)!
0J
0H
0G
1E
1D
0B
1@
1C
1M
0K
0I
1J
1H
1F
0E
1A
0C
1N
0L
0M
1K
1I
0F
0N
1L
1O
0O
#480000
0#
0>
0?
#490000
1#
1>
1?
1?"
1B
0@
0A
1C
#500000
0#
0>
0?
#510000
1#
1>
1?
1>"
0?"
0D
0B
1@
0C
1E
1D
1A
1C
1F
0E
0F
#520000
0#
0>
0?
#530000
1#
1>
1?
1?"
1B
0@
0D
0A
0C
1E
1F
#540000
0#
0>
0?
#550000
1#
1>
1?
1="
0>"
0?"
1G
0E
1D
0B
1@
1C
0J
0H
0F
0G
1E
1A
0C
1M
0K
0I
1J
1H
1F
1N
0L
0M
1K
1I
0N
1L
1O
0O
#560000
0#
0>
0?
#570000
1#
1>
1?
1?"
1B
0@
0A
1C
#580000
0#
0>
0?
#590000
1#
1>
1?
1>"
0?"
0D
0B
1@
0C
1G
0E
1D
1A
1C
0J
0H
0F
0G
1E
1M
0K
0I
1J
1H
1F
1N
0L
0M
1K
1I
0N
1L
1O
0O
#600000
0#
0>
0?
#610000
1#
1>
1?
1?"
1B
0@
0D
0A
0C
1G
0E
0J
0H
0F
1M
0K
0I
1N
0L
1O
#620000
0#
0>
0?
#630000
1#
1>
1?
1:"
0;"
0<"
0="
0>"
0?"
0P
0N
0M
1K
1J
1H
0G
1E
1D
0B
1@
1C
1Q
1P
1N
1L
0K
1I
0H
1F
0E
1A
0O
0C
0Q
0L
0I
0F
1R
1O
0R
#640000
0#
0>
0?
#650000
1#
1>
1?
1?"
1B
0@
0A
1C
#660000
0#
0>
0?
#670000
1#
1>
1?
1>"
0?"
0D
0B
1@
0C
1E
1D
1A
1C
1F
0E
0F
#680000
0#
0>
0?
#690000
1#
1>
1?
1?"
1B
0@
0D
0A
0C
1E
1F
#700000
0#
0>
0?
#710000
1#
1>
1?
1="
0>"
0?"
1G
0E
1D
0B
1@
1C
1H
0F
0G
1E
1A
0C
1I
0H
1F
0I
#720000
0#
0>
0?
#730000
1#
1>
1?
1?"
1B
0@
0A
1C
#740000
0#
0>
0?
#750000
1#
1>
1?
1>"
0?"
0D
0B
1@
0C
1G
0E
1D
1A
1C
1H
0F
0G
1E
1I
0H
1F
0I
#760000
0#
0>
0?
#770000
1#
1>
1?
1?"
1B
0@
0D
0A
0C
1G
0E
1H
0F
1I
#780000
0#
0>
0?
#790000
1#
1>
1?
1<"
0="
0>"
0?"
0J
0H
0G
1E
1D
0B
1@
1C
1K
0I
1J
1H
1F
0E
1A
0C
1L
0K
1I
0F
0L
#800000
0#
0>
0?
#810000
1#
1>
1?
1?"
1B
0@
0A
1C
#820000
0#
0>
0?
#830000
1#
1>
1?
1>"
0?"
0D
0B
1@
0C
1E
1D
1A
1C
1F
0E
0F
#840000
0#
0>
0?
#850000
1#
1>
1?
1?"
1B
0@
0D
0A
0C
1E
1F
#860000
0#
0>
0?
#870000
1#
1>
1?
1="
0>"
0?"
1G
0E
1D
0B
1@
1C
0J
0H
0F
0G
1E
1A
0C
1K
0I
1J
1H
1F
1L
0K
1I
0L
#880000
0#
0>
0?
#890000
1#
1>
1?
1?"
1B
0@
0A
1C
#900000
0#
0>
0?
#910000
1#
1>
1?
1>"
0?"
0D
0B
1@
0C
1G
0E
1D
1A
1C
0J
0H
0F
0G
1E
1K
0I
1J
1H
1F
1L
0K
1I
0L
#920000
0#
0>
0?
#930000
1#
1>
1?
1?"
1B
0@
0D
0A
0C
1G
0E
0J
0H
0F
1K
0I
1L
#940000
0#
0>
0?
#950000
1#
1>
1?
1;"
0<"
0="
0>"
0?"
1M
0K
1J
1H
0G
1E
1D
0B
1@
1C
0P
0N
0L
0M
1K
1I
0H
1F
0E
1A
0C
1Q
1P
1N
1L
0I
0F
0O
0Q
1R
1O
0R
#960000
0#
0>
0?
#970000
1#
1>
1?
1?"
1B
0@
0A
1C
#980000
0#
0>
0?
#990000
1#
1>
1?
1>"
0?"
0D
0B
1@
0C
1E
1D
1A
1C
1F
0E
0F
#1000000
0#
0>
0?
#1010000
1#
1>
1?
1?"
1B
0@
0D
0A
0C
1E
1F
#1020000
0#
0>
0?
#1030000
1#
1>
1?
1="
0>"
0?"
1G
0E
1D
0B
1@
1C
1H
0F
0G
1E
1A
0C
1I
0H
1F
0I
#1040000
0#
0>
0?
#1050000
1#
1>
1?
1?"
1B
0@
0A
1C
#1060000
0#
0>
0?
#1070000
1#
1>
1?
1>"
0?"
0D
0B
1@
0C
1G
0E
1D
1A
1C
1H
0F
0G
1E
1I
0H
1F
0I
#1080000
0#
0>
0?
#1090000
1#
1>
1?
1?"
1B
0@
0D
0A
0C
1G
0E
1H
0F
1I
#1100000
0#
0>
0?
#1110000
1#
1>
1?
1<"
0="
0>"
0?"
0J
0H
0G
1E
1D
0B
1@
1C
1M
0K
0I
1J
1H
1F
0E
1A
0C
0P
0N
0L
0M
1K
1I
0F
1Q
1P
1N
1L
0O
0Q
1R
1O
0R
#1120000
0#
0>
0?
#1130000
1#
1>
1?
1?"
1B
0@
0A
1C
#1140000
0#
0>
0?
#1150000
1#
1>
1?
1>"
0?"
0D
0B
1@
0C
1E
1D
1A
1C
1F
0E
0F
#1160000
0#
0>
0?
#1170000
1#
1>
1?
1?"
1B
0@
0D
0A
0C
1E
1F
#1180000
0#
0>
0?
#1190000
1#
1>
1?
1="
0>"
0?"
1G
0E
1D
0B
1@
1C
0J
0H
0F
0G
1E
1A
0C
1M
0K
0I
1J
1H
1F
0P
0N
0L
0M
1K
1I
1Q
1P
1N
1L
0O
0Q
1R
1O
0R
#1200000
0#
0>
0?
#1210000
1#
1>
1?
1?"
1B
0@
0A
1C
#1220000
0#
0>
0?
#1230000
1#
1>
1?
1>"
0?"
0D
0B
1@
0C
1G
0E
1D
1A
1C
0J
0H
0F
0G
1E
1M
0K
0I
1J
1H
1F
0P
0N
0L
0M
1K
1I
1Q
1P
1N
1L
0O
0Q
1R
1O
0R
#1240000
0#
0>
0?
#1250000
1#
1>
1?
1?"
1B
0@
0D
0A
0C
1G
0E
0J
0H
0F
1M
0K
0I
0P
0N
0L
1Q
0O
1R
#1260000
0#
0>
0?
#1270000
1#
1>
1?
19"
0:"
0;"
0<"
0="
0>"
0?"
1S
0Q
1P
1N
0M
1K
1J
1H
0G
1E
1D
0B
1@
1C
1T
0S
1Q
0N
1L
0K
1I
0H
1F
0E
1A
0R
1O
0C
0T
0L
0I
0F
1U
1R
0O
0U
#1280000
0#
0>
0?
#1290000
1#
1>
1?
1?"
1B
0@
0A
1C
#1300000
0#
0>
0?
#1310000
1#
1>
1?
1>"
0?"
0D
0B
1@
0C
1E
1D
1A
1C
1F
0E
0F
#1320000
0#
0>
0?
#1330000
1#
1>
1?
1?"
1B
0@
0D
0A
0C
1E
1F
#1340000
0#
0>
0?
#1350000
1#
1>
1?
1="
0>"
0?"
1G
0E
1D
0B
1@
1C
1H
0F
0G
1E
1A
0C
1I
0H
1F
0I
#1360000
0#
0>
0?
#1370000
1#
1>
1?
1?"
1B
0@
0A
1C
#1380000
0#
0>
0?
#1390000
1#
1>
1?
1>"
0?"
0D
0B
1@
0C
1G
0E
1D
1A
1C
1H
0F
0G
1E
1I
0H
1F
0I
#1400000
0#
0>
0?
#1410000
1#
1>
1?
1?"
1B
0@
0D
0A
0C
1G
0E
1H
0F
1I
#1420000
0#
0>
0?
#1430000
1#
1>
1?
1<"
0="
0>"
0?"
0J
0H
0G
1E
1D
0B
1@
1C
1K
0I
1J
1H
1F
0E
1A
0C
1L
0K
1I
0F
0L
#1440000
0#
0>
0?
#1450000
1#
1>
1?
1?"
1B
0@
0A
1C
#1460000
0#
0>
0?
#1470000
1#
1>
1?
1>"
0?"
0D
0B
1@
0C
1E
1D
1A
1C
1F
0E
0F
#1480000
0#
0>
0?
#1490000
1#
1>
1?
1?"
1B
0@
0D
0A
0C
1E
1F
#1500000
0#
0>
0?
#1510000
1#
1>
1?
1="
0>"
0?"
1G
0E
1D
0B
1@
1C
0J
0H
0F
0G
1E
1A
0C
1K
0I
1J
1H
1F
1L
0K
1I
0L
#1520000
0#
0>
0?
#1530000
1#
1>
1?
1?"
1B
0@
0A
1C
#1540000
0#
0>
0?
#1550000
1#
1>
1?
1>"
0?"
0D
0B
1@
0C
1G
0E
1D
1A
1C
0J
0H
0F
0G
1E
1K
0I
1J
1H
1F
1L
0K
1I
0L
#1560000
0#
0>
0?
#1570000
1#
1>
1?
1?"
1B
0@
0D
0A
0C
1G
0E
0J
0H
0F
1K
0I
1L
#1580000
0#
0>
0?
#1590000
1#
1>
1?
1;"
0<"
0="
0>"
0?"
1)!
1M
0K
1J
1H
0G
1E
1D
0B
1@
1C
1N
0L
0M
1K
1I
0H
1F
0E
1A
0C
0N
1L
0I
0F
1O
0O
#1600000
0#
0>
0?
#1610000
1#
1>
1?
1?"
1B
0@
0A
1C
#1620000
0#
0>
0?
#1630000
1#
1>
1?
1>"
0?"
0D
0B
1@
0C
1E
1D
1A
1C
1F
0E
0F
#1640000
0#
0>
0?
#1650000
1#
1>
1?
1?"
1B
0@
0D
0A
0C
1E
1F
#1660000
0#
0>
0?
#1670000
1#
1>
1?
1="
0>"
0?"
1G
0E
1D
0B
1@
1C
1H
0F
0G
1E
1A
0C
1I
0H
1F
0I
#1680000
0#
0>
0?
#1690000
1#
1>
1?
1?"
1B
0@
0A
1C
#1700000
0#
0>
0?
#1710000
1#
1>
1?
1>"
0?"
0D
0B
1@
0C
1G
0E
1D
1A
1C
1H
0F
0G
1E
1I
0H
1F
0I
#1720000
0#
0>
0?
#1730000
1#
1>
1?
1?"
1B
0@
0D
0A
0C
1G
0E
1H
0F
1I
#1740000
0#
0>
0?
#1750000
1#
1>
1?
1<"
0="
0>"
0?"
0)!
0J
0H
0G
1E
1D
0B
1@
1C
1M
0K
0I
1J
1H
1F
0E
1A
0C
1N
0L
0M
1K
1I
0F
0N
1L
1O
0O
#1760000
0#
0>
0?
#1770000
1#
1>
1?
1?"
1B
0@
0A
1C
#1780000
0#
0>
0?
#1790000
1#
1>
1?
1>"
0?"
0D
0B
1@
0C
1E
1D
1A
1C
1F
0E
0F
#1800000
0#
0>
0?
#1810000
1#
1>
1?
1?"
1B
0@
0D
0A
0C
1E
1F
#1820000
0#
0>
0?
#1830000
1#
1>
1?
1="
0>"
0?"
1G
0E
1D
0B
1@
1C
0J
0H
0F
0G
1E
1A
0C
1M
0K
0I
1J
1H
1F
1N
0L
0M
1K
1I
0N
1L
1O
0O
#1840000
0#
0>
0?
#1850000
1#
1>
1?
1?"
1B
0@
0A
1C
#1860000
0#
0>
0?
#1870000
1#
1>
1?
1>"
0?"
0D
0B
1@
0C
1G
0E
1D
1A
1C
0J
0H
0F
0G
1E
1M
0K
0I
1J
1H
1F
1N
0L
0M
1K
1I
0N
1L
1O
0O
#1880000
0#
0>
0?
#1890000
1#
1>
1?
1?"
1B
0@
0D
0A
0C
1G
0E
0J
0H
0F
1M
0K
0I
1N
0L
1O
#1900000
0#
0>
0?
#1910000
1#
1>
1?
1:"
0;"
0<"
0="
0>"
0?"
0P
0N
0M
1K
1J
1H
0G
1E
1D
0B
1@
1C
1S
0Q
1P
1N
1L
0K
1I
0H
1F
0E
1A
0O
0C
1T
0S
1Q
0L
0I
0F
0R
1O
0T
1U
1R
0U
#1920000
0#
0>
0?
#1930000
1#
1>
1?
1?"
1B
0@
0A
1C
#1940000
0#
0>
0?
#1950000
1#
1>
1?
1>"
0?"
0D
0B
1@
0C
1E
1D
1A
1C
1F
0E
0F
#1960000
0#
0>
0?
#1970000
1#
1>
1?
1?"
1B
0@
0D
0A
0C
1E
1F
#1980000
0#
0>
0?
#1990000
1#
1>
1?
1="
0>"
0?"
1G
0E
1D
0B
1@
1C
1H
0F
0G
1E
1A
0C
1I
0H
1F
0I
#2000000
0#
0>
0?
#2010000
1#
1>
1?
1?"
1B
0@
0A
1C
#2020000
0#
0>
0?
#2030000
1#
1>
1?
1>"
0?"
0D
0B
1@
0C
1G
0E
1D
1A
1C
1H
0F
0G
1E
1I
0H
1F
0I
#2040000
0#
0>
0?
#2050000
1#
1>
1?
1?"
1B
0@
0D
0A
0C
1G
0E
1H
0F
1I
#2060000
0#
0>
0?
#2070000
1#
1>
1?
1<"
0="
0>"
0?"
0J
0H
0G
1E
1D
0B
1@
1C
1K
0I
1J
1H
1F
0E
1A
0C
1L
0K
1I
0F
0L
#2080000
0#
0>
0?
#2090000
1#
1>
1?
1?"
1B
0@
0A
1C
#2100000
0#
0>
0?
#2110000
1#
1>
1?
1>"
0?"
0D
0B
1@
0C
1E
1D
1A
1C
1F
0E
0F
#2120000
0#
0>
0?
#2130000
1#
1>
1?
1?"
1B
0@
0D
0A
0C
1E
1F
#2140000
0#
0>
0?
#2150000
1#
1>
1?
1="
0>"
0?"
1G
0E
1D
0B
1@
1C
0J
0H
0F
0G
1E
1A
0C
1K
0I
1J
1H
1F
1L
0K
1I
0L
#2160000
0#
0>
0?
#2170000
1#
1>
1?
1?"
1B
0@
0A
1C
#2180000
0#
0>
0?
#2190000
1#
1>
1?
1>"
0?"
0D
0B
1@
0C
1G
0E
1D
1A
1C
0J
0H
0F
0G
1E
1K
0I
1J
1H
1F
1L
0K
1I
0L
#2200000
0#
0>
0?
#2210000
1#
1>
1?
1?"
1B
0@
0D
0A
0C
1G
0E
0J
0H
0F
1K
0I
1L
#2220000
0#
0>
0?
#2230000
1#
1>
1?
1;"
0<"
0="
0>"
0?"
1M
0K
1J
1H
0G
1E
1D
0B
1@
1C
0P
0N
0L
0M
1K
1I
0H
1F
0E
1A
0C
1S
0Q
1P
1N
1L
0I
0F
0O
1T
0S
1Q
0R
1O
0T
1U
1R
0U
#2240000
0#
0>
0?
#2250000
1#
1>
1?
1?"
1B
0@
0A
1C
#2260000
0#
0>
0?
#2270000
1#
1>
1?
1>"
0?"
0D
0B
1@
0C
1E
1D
1A
1C
1F
0E
0F
#2280000
0#
0>
0?
#2290000
1#
1>
1?
1?"
1B
0@
0D
0A
0C
1E
1F
#2300000
0#
0>
0?
#2310000
1#
1>
1?
1="
0>"
0?"
1G
0E
1D
0B
1@
1C
1H
0F
0G
1E
1A
0C
1I
0H
1F
0I
#2320000
0#
0>
0?
#2330000
1#
1>
1?
1?"
1B
0@
0A
1C
#2340000
0#
0>
0?
#2350000
1#
1>
1?
1>"
0?"
0D
0B
1@
0C
1G
0E
1D
1A
1C
1H
0F
0G
1E
1I
0H
1F
0I
#2360000
0#
0>
0?
#2370000
1#
1>
1?
1?"
1B
0@
0D
0A
0C
1G
0E
1H
0F
1I
#2380000
0#
0>
0?
#2390000
1#
1>
1?
1<"
0="
0>"
0?"
0J
0H
0G
1E
1D
0B
1@
1C
1M
0K
0I
1J
1H
1F
0E
1A
0C
0P
0N
0L
0M
1K
1I
0F
1S
0Q
1P
1N
1L
0O
1T
0S
1Q
0R
1O
0T
1U
1R
0U
#2400000
0#
0>
0?
