Serial to SPI/simulation/qsim/SerialtoSPI.msim.vcd
$comment
	File created using the following command:
		vcd file SerialtoSPI.msim.vcd -direction
$end
$date
	Sun Apr 10 20:02:51 2016
$end
$version
	ModelSim Version 10.4b
$end
$timescale
	1ps
$end

$scope module SerialtoSPI_vlg_vec_tst $end
$var reg 1 ! CLK $end
$var reg 1 " RESET $end
$var reg 1 # RTS $end
$var reg 1 $ TX_D $end
$var wire 1 % ADDR [4] $end
$var wire 1 & ADDR [3] $end
$var wire 1 ' ADDR [2] $end
$var wire 1 ( ADDR [1] $end
$var wire 1 ) ADDR [0] $end
$var wire 1 * CLEAR $end
$var wire 1 + CTS $end
$var wire 1 , FULL $end
$var wire 1 - READ $end
$var wire 1 . RX_D $end

$scope module i1 $end
$var wire 1 / gnd $end
$var wire 1 0 vcc $end
$var wire 1 1 unknown $end
$var tri1 1 2 devclrn $end
$var tri1 1 3 devpor $end
$var tri1 1 4 devoe $end
$var wire 1 5 TX_D~input_o $end
$var wire 1 6 CLK~input_o $end
$var wire 1 7 RESET~input_o $end
$var wire 1 8 CTS~output_o $end
$var wire 1 9 RX_D~output_o $end
$var wire 1 : FULL~output_o $end
$var wire 1 ; CLEAR~output_o $end
$var wire 1 < READ~output_o $end
$var wire 1 = ADDR[4]~output_o $end
$var wire 1 > ADDR[3]~output_o $end
$var wire 1 ? ADDR[2]~output_o $end
$var wire 1 @ ADDR[1]~output_o $end
$var wire 1 A ADDR[0]~output_o $end
$var wire 1 B RTS~input_o $end
$upscope $end
$upscope $end
$enddefinitions $end
#0
$dumpvars
0!
1"
x#
1$
0)
0(
0'
0&
0%
1*
x+
0,
0-
0.
0/
10
x1
12
13
14
15
06
17
x8
09
0:
1;
0<
0=
0>
0?
0@
0A
xB
$end
#2000
1!
16
#4000
0$
0!
05
06
#6000
1!
16
#8000
0!
06
#10000
1!
16
#12000
1$
0!
15
06
#14000
1!
16
#16000
0!
06
#18000
1!
16
#20000
0!
06
#22000
1!
16
#24000
0$
0!
05
06
#26000
1!
16
#28000
1$
0!
15
06
#30000
1!
16
#32000
0$
0!
05
06
#34000
1!
16
#36000
0!
06
#38000
1!
16
#40000
1$
0!
15
06
#42000
1!
16
#44000
0$
0!
05
06
#46000
1!
16
#48000
0!
06
#50000
1!
16
#52000
1$
0!
15
06
#54000
1!
16
#56000
0$
0!
05
06
#58000
1!
16
#60000
1$
0!
15
06
#62000
1!
16
#64000
0$
0!
05
06
#66000
1!
16
#68000
1$
0!
15
06
#70000
1!
16
#72000
0!
06
#74000
1!
16
#76000
0!
06
#78000
1!
16
#80000
0$
0!
05
06
#82000
1!
16
#84000
1$
0!
15
06
#86000
1!
16
#88000
0$
0!
05
06
#90000
1!
16
#92000
1$
0!
15
06
#94000
1!
16
#96000
0$
0!
05
06
#98000
1!
16
#100000
0!
06
#102000
1!
16
#104000
0!
06
#106000
1!
16
#108000
1$
0!
15
06
#110000
1!
16
#112000
0$
0!
05
06
#114000
1!
16
#116000
0!
06
#118000
1!
16
#120000
1$
0!
15
06
#122000
1!
16
#124000
0!
06
#126000
1!
16
#128000
0!
06
#130000
1!
16
#132000
0$
0!
05
06
#134000
1!
16
#136000
0!
06
#138000
1!
16
#140000
1$
0!
15
06
#142000
1!
16
#144000
0!
06
#146000
1!
16
#148000
0$
0!
05
06
#150000
1!
16
#152000
1$
0!
15
06
#154000
1!
16
#156000
0$
0!
05
06
#158000
1!
16
#160000
1$
0!
15
06
#162000
1!
16
#164000
0!
06
#166000
1!
16
#168000
0!
06
#170000
1!
16
#172000
0!
06
#174000
1!
16
#176000
0!
06
#178000
1!
16
#180000
0$
0!
05
06
#182000
1!
16
#184000
1$
0!
15
06
#186000
1!
16
#188000
0!
06
#190000
1!
16
#192000
0$
0!
05
06
#194000
1!
16
#196000
1$
0!
15
06
#198000
1!
16
#200000
0!
06
#202000
1!
16
#204000
0!
06
#206000
1!
16
#208000
0!
06
#210000
1!
16
#212000
0$
0!
05
06
#214000
1!
16
#216000
1$
0!
15
06
#218000
1!
16
#220000
0!
06
#222000
1!
16
#224000
0$
0!
05
06
#226000
1!
16
#228000
0!
06
#230000
1!
16
#232000
1$
0!
15
06
#234000
1!
16
#236000
0!
06
#238000
1!
16
#240000
0!
06
#242000
1!
16
#244000
0$
0!
05
06
#246000
1!
16
#248000
1$
0!
15
06
#250000
1!
16
#252000
0$
0!
05
06
#254000
1!
16
#256000
0!
06
#258000
1!
16
#260000
0!
06
#262000
1!
16
#264000
0!
06
#266000
1!
16
#268000
1$
0!
15
06
#270000
1!
16
#272000
0!
06
#274000
1!
16
#276000
0$
0!
05
06
#278000
1!
16
#280000
0!
06
#282000
1!
16
#284000
0!
06
#286000
1!
16
#288000
1$
0!
15
06
#290000
1!
16
#292000
0$
0!
05
06
#294000
1!
16
#296000
1$
0!
15
06
#298000
1!
16
#300000
0$
0!
05
06
#302000
1!
16
#304000
1$
0!
15
06
#306000
1!
16
#308000
0!
06
#310000
1!
16
#312000
0$
0!
05
06
#314000
1!
16
#316000
0!
06
#318000
1!
16
#320000
1$
0!
15
06
#322000
1!
16
#324000
0!
06
#326000
1!
16
#328000
0$
0!
05
06
#330000
1!
16
#332000
1$
0!
15
06
#334000
1!
16
#336000
0!
06
#338000
1!
16
#340000
0!
06
#342000
1!
16
#344000
0!
06
#346000
1!
16
#348000
0$
0!
05
06
#350000
1!
16
#352000
0!
06
#354000
1!
16
#356000
0!
06
#358000
1!
16
#360000
0!
06
#362000
1!
16
#364000
1$
0!
15
06
#366000
1!
16
#368000
0!
06
#370000
1!
16
#372000
0!
06
#374000
1!
16
#376000
0$
0!
05
06
#378000
1!
16
#380000
0!
06
#382000
1!
16
#384000
0!
06
#386000
1!
16
#388000
0!
06
#390000
1!
16
#392000
0!
06
#394000
1!
16
#396000
0!
06
#398000
1!
16
#400000
1$
0!
15
06
#402000
1!
16
#404000
0$
0!
05
06
#406000
1!
16
#408000
1$
0!
15
06
#410000
1!
16
#412000
0$
0!
05
06
#414000
1!
16
#416000
0!
06
#418000
1!
16
#420000
1$
0!
15
06
#422000
1!
16
#424000
0$
0!
05
06
#426000
1!
16
#428000
1$
0!
15
06
#430000
1!
16
#432000
0!
06
#434000
1!
16
#436000
0$
0!
05
06
#438000
1!
16
#440000
0!
06
#442000
1!
16
#444000
0!
06
#446000
1!
16
#448000
0!
06
#450000
1!
16
#452000
0!
06
#454000
1!
16
#456000
1$
0!
15
06
#458000
1!
16
#460000
0$
0!
05
06
#462000
1!
16
#464000
0!
06
#466000
1!
16
#468000
0!
06
#470000
1!
16
#472000
1$
0!
15
06
#474000
1!
16
#476000
0$
0!
05
06
#478000
1!
16
#480000
0!
06
#482000
1!
16
#484000
0!
06
#486000
1!
16
#488000
0!
06
#490000
1!
16
#492000
0!
06
#494000
1!
16
#496000
1$
0!
15
06
#498000
1!
16
#500000
0!
06
#502000
1!
16
#504000
0$
0!
05
06
#506000
1!
16
#508000
0!
06
#510000
1!
16
#512000
1$
0!
15
06
#514000
1!
16
#516000
0$
0!
05
06
#518000
1!
16
#520000
0!
06
#522000
1!
16
#524000
1$
0!
15
06
#526000
1!
16
#528000
0$
0!
05
06
#530000
1!
16
#532000
0!
06
#534000
1!
16
#536000
0!
06
#538000
1!
16
#540000
1$
0!
15
06
#542000
1!
16
#544000
0$
0!
05
06
#546000
1!
16
#548000
0!
06
#550000
1!
16
#552000
0!
06
#554000
1!
16
#556000
1$
0!
15
06
#558000
1!
16
#560000
0!
06
#562000
1!
16
#564000
0$
0!
05
06
#566000
1!
16
#568000
1$
0!
15
06
#570000
1!
16
#572000
0!
06
#574000
1!
16
#576000
0$
0!
05
06
#578000
1!
16
#580000
0!
06
#582000
1!
16
#584000
1$
0!
15
06
#586000
1!
16
#588000
0$
0!
05
06
#590000
1!
16
#592000
0!
06
#594000
1!
16
#596000
0!
06
#598000
1!
16
#600000
1$
0!
15
06
#602000
1!
16
#604000
0$
0!
05
06
#606000
1!
16
#608000
1$
0!
15
06
#610000
1!
16
#612000
0$
0!
05
06
#614000
1!
16
#616000
1$
0!
15
06
#618000
1!
16
#620000
0!
06
#622000
1!
16
#624000
0!
06
#626000
1!
16
#628000
0!
06
#630000
1!
16
#632000
0$
0!
05
06
#634000
1!
16
#636000
1$
0!
15
06
#638000
1!
16
#640000
0$
0!
05
06
#642000
1!
16
#644000
1$
0!
15
06
#646000
1!
16
#648000
0$
0!
05
06
#650000
1!
16
#652000
1$
0!
15
06
#654000
1!
16
#656000
0!
06
#658000
1!
16
#660000
0!
06
#662000
1!
16
#664000
0$
0!
05
06
#666000
1!
16
#668000
0!
06
#670000
1!
16
#672000
0!
06
#674000
1!
16
#676000
1$
0!
15
06
#678000
1!
16
#680000
0!
06
#682000
1!
16
#684000
0$
0!
05
06
#686000
1!
16
#688000
1$
0!
15
06
#690000
1!
16
#692000
0!
06
#694000
1!
16
#696000
0!
06
#698000
1!
16
#700000
0$
0!
05
06
#702000
1!
16
#704000
1$
0!
15
06
#706000
1!
16
#708000
0$
0!
05
06
#710000
1!
16
#712000
1$
0!
15
06
#714000
1!
16
#716000
0$
0!
05
06
#718000
1!
16
#720000
1$
0!
15
06
#722000
1!
16
#724000
0$
0!
05
06
#726000
1!
16
#728000
1$
0!
15
06
#730000
1!
16
#732000
0$
0!
05
06
#734000
1!
16
#736000
0!
06
#738000
1!
16
#740000
0!
06
#742000
1!
16
#744000
1$
0!
15
06
#746000
1!
16
#748000
0!
06
#750000
1!
16
#752000
0$
0!
05
06
#754000
1!
16
#756000
1$
0!
15
06
#758000
1!
16
#760000
0!
06
#762000
1!
16
#764000
0$
0!
05
06
#766000
1!
16
#768000
0!
06
#770000
1!
16
#772000
1$
0!
15
06
#774000
1!
16
#776000
0!
06
#778000
1!
16
#780000
0!
06
#782000
1!
16
#784000
0!
06
#786000
1!
16
#788000
0!
06
#790000
1!
16
#792000
0$
0!
05
06
#794000
1!
16
#796000
1$
0!
15
06
#798000
1!
16
#800000
0!
06
#802000
1!
16
#804000
0$
0!
05
06
#806000
1!
16
#808000
0!
06
#810000
1!
16
#812000
1$
0!
15
06
#814000
1!
16
#816000
0$
0!
05
06
#818000
1!
16
#820000
1$
0!
15
06
#822000
1!
16
#824000
0$
0!
05
06
#826000
1!
16
#828000
1$
0!
15
06
#830000
1!
16
#832000
0$
0!
05
06
#834000
1!
16
#836000
1$
0!
15
06
#838000
1!
16
#840000
0$
0!
05
06
#842000
1!
16
#844000
1$
0!
15
06
#846000
1!
16
#848000
0!
06
#850000
1!
16
#852000
0$
0!
05
06
#854000
1!
16
#856000
0!
06
#858000
1!
16
#860000
1$
0!
15
06
#862000
1!
16
#864000
0!
06
#866000
1!
16
#868000
0$
0!
05
06
#870000
1!
16
#872000
1$
0!
15
06
#874000
1!
16
#876000
0$
0!
05
06
#878000
1!
16
#880000
1$
0!
15
06
#882000
1!
16
#884000
0!
06
#886000
1!
16
#888000
0!
06
#890000
1!
16
#892000
0$
0!
05
06
#894000
1!
16
#896000
1$
0!
15
06
#898000
1!
16
#900000
0$
0!
05
06
#902000
1!
16
#904000
0!
06
#906000
1!
16
#908000
0!
06
#910000
1!
16
#912000
1$
0!
15
06
#914000
1!
16
#916000
0$
0!
05
06
#918000
1!
16
#920000
0!
06
#922000
1!
16
#924000
1$
0!
15
06
#926000
1!
16
#928000
0$
0!
05
06
#930000
1!
16
#932000
1$
0!
15
06
#934000
1!
16
#936000
0!
06
#938000
1!
16
#940000
0!
06
#942000
1!
16
#944000
0!
06
#946000
1!
16
#948000
0$
0!
05
06
#950000
1!
16
#952000
1$
0!
15
06
#954000
1!
16
#956000
0!
06
#958000
1!
16
#960000
0$
0!
05
06
#962000
1!
16
#964000
1$
0!
15
06
#966000
1!
16
#968000
0!
06
#970000
1!
16
#972000
0$
0!
05
06
#974000
1!
16
#976000
0!
06
#978000
1!
16
#980000
0!
06
#982000
1!
16
#984000
0!
06
#986000
1!
16
#988000
0!
06
#990000
1!
16
#992000
1$
0!
15
06
#994000
1!
16
#996000
0$
0!
05
06
#998000
1!
16
